<?xml version="1.0" encoding="UTF-8" standalone="no"?>
<!-- Created with Inkscape (http://www.inkscape.org/) -->

<svg
   version="1.1"
   id="svg994"
   width="1818"
   height="1036"
   viewBox="0 0 1818 1036"
   sodipodi:docname="14Nsum_complete.svg"
   inkscape:version="1.1.2 (0a00cf5339, 2022-02-04)"
   inkscape:export-filename="/home/user/Nextcloud/Documents/Uni/TesiMagistrale/progettoTesi/presentazione/Images/14Nsum_complete.png"
   inkscape:export-xdpi="96"
   inkscape:export-ydpi="96"
   xmlns:inkscape="http://www.inkscape.org/namespaces/inkscape"
   xmlns:sodipodi="http://sodipodi.sourceforge.net/DTD/sodipodi-0.dtd"
   xmlns:xlink="http://www.w3.org/1999/xlink"
   xmlns="http://www.w3.org/2000/svg"
   xmlns:svg="http://www.w3.org/2000/svg">
  <defs
     id="defs998">
    <marker
       style="overflow:visible"
       id="Arrow1Lend"
       refX="0"
       refY="0"
       orient="auto"
       inkscape:stockid="Arrow1Lend"
       inkscape:isstock="true">
      <path
         transform="matrix(-0.8,0,0,-0.8,-10,0)"
         style="fill:context-stroke;fill-rule:evenodd;stroke:context-stroke;stroke-width:1pt"
         d="M 0,0 5,-5 -12.5,0 5,5 Z"
         id="path2703" />
    </marker>
    <marker
       style="overflow:visible"
       id="marker3058"
       refX="0"
       refY="0"
       orient="auto"
       inkscape:stockid="Arrow1Lend"
       inkscape:isstock="true">
      <path
         transform="matrix(-0.8,0,0,-0.8,-10,0)"
         style="fill:context-stroke;fill-rule:evenodd;stroke:context-stroke;stroke-width:1pt"
         d="M 0,0 5,-5 -12.5,0 5,5 Z"
         id="path3056" />
    </marker>
    <marker
       style="overflow:visible"
       id="marker1073"
       refX="0"
       refY="0"
       orient="auto"
       inkscape:stockid="Arrow1Lend"
       inkscape:isstock="true">
      <path
         transform="matrix(-0.8,0,0,-0.8,-10,0)"
         style="fill:context-stroke;fill-rule:evenodd;stroke:context-stroke;stroke-width:1pt"
         d="M 0,0 5,-5 -12.5,0 5,5 Z"
         id="path1071" />
    </marker>
    <marker
       style="overflow:visible"
       id="marker1077"
       refX="0"
       refY="0"
       orient="auto"
       inkscape:stockid="Arrow1Lend"
       inkscape:isstock="true">
      <path
         transform="matrix(-0.8,0,0,-0.8,-10,0)"
         style="fill:context-stroke;fill-rule:evenodd;stroke:context-stroke;stroke-width:1pt"
         d="M 0,0 5,-5 -12.5,0 5,5 Z"
         id="path1075" />
    </marker>
    <marker
       style="overflow:visible"
       id="marker1081"
       refX="0"
       refY="0"
       orient="auto"
       inkscape:stockid="Arrow1Lend"
       inkscape:isstock="true">
      <path
         transform="matrix(-0.8,0,0,-0.8,-10,0)"
         style="fill:context-stroke;fill-rule:evenodd;stroke:context-stroke;stroke-width:1pt"
         d="M 0,0 5,-5 -12.5,0 5,5 Z"
         id="path1079" />
    </marker>
    <marker
       style="overflow:visible"
       id="marker1085"
       refX="0"
       refY="0"
       orient="auto"
       inkscape:stockid="Arrow1Lend"
       inkscape:isstock="true">
      <path
         transform="matrix(-0.8,0,0,-0.8,-10,0)"
         style="fill:context-stroke;fill-rule:evenodd;stroke:context-stroke;stroke-width:1pt"
         d="M 0,0 5,-5 -12.5,0 5,5 Z"
         id="path1083" />
    </marker>
    <marker
       style="overflow:visible"
       id="marker1089"
       refX="0"
       refY="0"
       orient="auto"
       inkscape:stockid="Arrow1Lend"
       inkscape:isstock="true">
      <path
         transform="matrix(-0.8,0,0,-0.8,-10,0)"
         style="fill:context-stroke;fill-rule:evenodd;stroke:context-stroke;stroke-width:1pt"
         d="M 0,0 5,-5 -12.5,0 5,5 Z"
         id="path1087" />
    </marker>
    <marker
       style="overflow:visible"
       id="marker1093"
       refX="0"
       refY="0"
       orient="auto"
       inkscape:stockid="Arrow1Lend"
       inkscape:isstock="true">
      <path
         transform="matrix(-0.8,0,0,-0.8,-10,0)"
         style="fill:context-stroke;fill-rule:evenodd;stroke:context-stroke;stroke-width:1pt"
         d="M 0,0 5,-5 -12.5,0 5,5 Z"
         id="path1091" />
    </marker>
    <marker
       style="overflow:visible"
       id="marker1097"
       refX="0"
       refY="0"
       orient="auto"
       inkscape:stockid="Arrow1Lend"
       inkscape:isstock="true">
      <path
         transform="matrix(-0.8,0,0,-0.8,-10,0)"
         style="fill:context-stroke;fill-rule:evenodd;stroke:context-stroke;stroke-width:1pt"
         d="M 0,0 5,-5 -12.5,0 5,5 Z"
         id="path1095" />
    </marker>
    <marker
       style="overflow:visible"
       id="marker3058-5"
       refX="0"
       refY="0"
       orient="auto"
       inkscape:stockid="Arrow1Lend"
       inkscape:isstock="true">
      <path
         transform="matrix(-0.8,0,0,-0.8,-10,0)"
         style="fill:context-stroke;fill-rule:evenodd;stroke:context-stroke;stroke-width:1pt"
         d="M 0,0 5,-5 -12.5,0 5,5 Z"
         id="path3056-6" />
    </marker>
    <marker
       style="overflow:visible"
       id="marker3058-9"
       refX="0"
       refY="0"
       orient="auto"
       inkscape:stockid="Arrow1Lend"
       inkscape:isstock="true">
      <path
         transform="matrix(-0.8,0,0,-0.8,-10,0)"
         style="fill:context-stroke;fill-rule:evenodd;stroke:context-stroke;stroke-width:1pt"
         d="M 0,0 5,-5 -12.5,0 5,5 Z"
         id="path3056-8" />
    </marker>
    <marker
       style="overflow:visible"
       id="marker2091426"
       refX="0"
       refY="0"
       orient="auto"
       inkscape:stockid="Arrow1Lend"
       inkscape:isstock="true">
      <path
         transform="matrix(-0.8,0,0,-0.8,-10,0)"
         style="fill:context-stroke;fill-rule:evenodd;stroke:context-stroke;stroke-width:1pt"
         d="M 0,0 5,-5 -12.5,0 5,5 Z"
         id="path2091424" />
    </marker>
    <marker
       style="overflow:visible"
       id="marker2091430"
       refX="0"
       refY="0"
       orient="auto"
       inkscape:stockid="Arrow1Lend"
       inkscape:isstock="true">
      <path
         transform="matrix(-0.8,0,0,-0.8,-10,0)"
         style="fill:context-stroke;fill-rule:evenodd;stroke:context-stroke;stroke-width:1pt"
         d="M 0,0 5,-5 -12.5,0 5,5 Z"
         id="path2091428" />
    </marker>
    <marker
       style="overflow:visible"
       id="marker2091434"
       refX="0"
       refY="0"
       orient="auto"
       inkscape:stockid="Arrow1Lend"
       inkscape:isstock="true">
      <path
         transform="matrix(-0.8,0,0,-0.8,-10,0)"
         style="fill:context-stroke;fill-rule:evenodd;stroke:context-stroke;stroke-width:1pt"
         d="M 0,0 5,-5 -12.5,0 5,5 Z"
         id="path2091432" />
    </marker>
    <marker
       style="overflow:visible"
       id="marker2091438"
       refX="0"
       refY="0"
       orient="auto"
       inkscape:stockid="Arrow1Lend"
       inkscape:isstock="true">
      <path
         transform="matrix(-0.8,0,0,-0.8,-10,0)"
         style="fill:context-stroke;fill-rule:evenodd;stroke:context-stroke;stroke-width:1pt"
         d="M 0,0 5,-5 -12.5,0 5,5 Z"
         id="path2091436" />
    </marker>
    <marker
       style="overflow:visible"
       id="marker2091442"
       refX="0"
       refY="0"
       orient="auto"
       inkscape:stockid="Arrow1Lend"
       inkscape:isstock="true">
      <path
         transform="matrix(-0.8,0,0,-0.8,-10,0)"
         style="fill:context-stroke;fill-rule:evenodd;stroke:context-stroke;stroke-width:1pt"
         d="M 0,0 5,-5 -12.5,0 5,5 Z"
         id="path2091440" />
    </marker>
    <marker
       style="overflow:visible"
       id="marker2091446"
       refX="0"
       refY="0"
       orient="auto"
       inkscape:stockid="Arrow1Lend"
       inkscape:isstock="true">
      <path
         transform="matrix(-0.8,0,0,-0.8,-10,0)"
         style="fill:context-stroke;fill-rule:evenodd;stroke:context-stroke;stroke-width:1pt"
         d="M 0,0 5,-5 -12.5,0 5,5 Z"
         id="path2091444" />
    </marker>
    <marker
       style="overflow:visible"
       id="Arrow1Lend-6"
       refX="0"
       refY="0"
       orient="auto"
       inkscape:stockid="Arrow1Lend"
       inkscape:isstock="true">
      <path
         transform="matrix(-0.8,0,0,-0.8,-10,0)"
         style="fill:context-stroke;fill-rule:evenodd;stroke:context-stroke;stroke-width:1pt"
         d="M 0,0 5,-5 -12.5,0 5,5 Z"
         id="path2703-2" />
    </marker>
    <marker
       style="overflow:visible"
       id="marker2091452"
       refX="0"
       refY="0"
       orient="auto"
       inkscape:stockid="Arrow1Lend"
       inkscape:isstock="true">
      <path
         transform="matrix(-0.8,0,0,-0.8,-10,0)"
         style="fill:context-stroke;fill-rule:evenodd;stroke:context-stroke;stroke-width:1pt"
         d="M 0,0 5,-5 -12.5,0 5,5 Z"
         id="path2091450" />
    </marker>
    <marker
       style="overflow:visible"
       id="marker2091456"
       refX="0"
       refY="0"
       orient="auto"
       inkscape:stockid="Arrow1Lend"
       inkscape:isstock="true">
      <path
         transform="matrix(-0.8,0,0,-0.8,-10,0)"
         style="fill:context-stroke;fill-rule:evenodd;stroke:context-stroke;stroke-width:1pt"
         d="M 0,0 5,-5 -12.5,0 5,5 Z"
         id="path2091454" />
    </marker>
  </defs>
  <sodipodi:namedview
     id="namedview996"
     pagecolor="#505050"
     bordercolor="#ffffff"
     borderopacity="1"
     inkscape:pageshadow="0"
     inkscape:pageopacity="0"
     inkscape:pagecheckerboard="1"
     showgrid="true"
     inkscape:zoom="0.84942085"
     inkscape:cx="1008.3341"
     inkscape:cy="525.06364"
     inkscape:window-width="1820"
     inkscape:window-height="1060"
     inkscape:window-x="100"
     inkscape:window-y="20"
     inkscape:window-maximized="1"
     inkscape:current-layer="g1000">
    <inkscape:grid
       type="xygrid"
       id="grid2091776" />
  </sodipodi:namedview>
  <g
     inkscape:groupmode="layer"
     inkscape:label="Image"
     id="g1000">
    <image
       width="1818"
       height="1036"
       preserveAspectRatio="none"
       xlink:href="data:image/png;base64,iVBORw0KGgoAAAANSUhEUgAABxoAAAQMCAIAAAAu0wuPAAAABmJLR0QAAAAAAAD5Q7t/AAAgAElE QVR4nOzd25WbyPo3YPivicU7DND9OI2vA3AAQgE4AMdh3wuFMZ2MvgvGDAYExUmcnmfN2qvdLRUl DtLmp7eq4ufzGQEAAAAA0Of/1u4AAAAAAMA+iFMBAAAAAIKIUwEAAAAAgohTAQAAAACCiFMBAAAA AIKIUwEAAAAAgohTAQAAAACCiFMBAAAAAIKIUwEAAAAAgohTAQAAAACCiFMBAAAAAIKIUwEAAAAA gohTAQAAAACCiFMBAAAAAIKIUwEAAAAAgohTAQAAAACCiFMBAAAAAIKIUwEAAAAAgohTAQAAAACC iFMBAAAAAIKIUwEAAAAAgohTAQAAAACCiFMBAAAAAIKIUwEAAAAAgohTAQAAAACCiFMBAAAAAIKI UwEAAAAAgohTAQAAAACCiFMBAAAAAIKIUwEAAAAAgvy1dgcAYLvyPC9/TtN0lqZGtFM8d2IHduE8 r/SV/LfqL4sdkqbpmfcMAABsRPx8PtfuAwBsUZZlt9ut+pv7/T4uz4rjuPw5SZJaWBb43MN/ZOd5 frlcouG76ADyPM+y7PF49D4ySZIsy+SqAACwFoP9AdiWLMviOI7jeInAKM/z+Lcsy4Y+vQj73qns 5PV6ffOm36884o/HY944tTzoI7oUjxK+iTzP0zS9XC4hWWoURY/H43K5pGl6tsQZAAA2QpwKwLbU CkLnNT0PHRHCTlHujTdvdy33+734YcbkekrsGBhxjjYoSK0qQ9UFOgUAAHQRpwJwFrNkT4umvTVl h89QmlpI0zRJkuLnuRLkzSbRaZq+ClKTJLlWlPuk5vF4SFRhU6ol7S5PADgqS1EBsCHL3XwGTkwZ 4j3jrKsd3mwguIQsy4rS1NvtNv2F53m+dIXpOK0TAlyv1471plrnV308HnFsKnwAAHgfcSoAW7Fc 8pXn+YxVpY/HI8uypSPOssPnKU0tFAWqxZkwPbmeMmlAbdPlRATTNQPTkNW3yr3RLGs1lSoAALyN OBWATciybLlx9LMvITVL4WSHauOnKk0tlAWqU+L1PM8nHvdaQDlX6XSzwvR6vQ46ysXqVdVG3hPx AwAAkblTAVhRMXi5mGluuSx1rhSsNn/lopPilXvj1aSZx1bdt4P2c/WMmjdDn+tANAulh2apZTu1 Lr1zVl8AADgz1akArKB14sglzDiBQJ7n1W4/Ho+iSHCWxmsbKn8+bb1hOd4/8PAtUd1cPRAzlqZW /5kkyehDXDshI0P+AQDgLcSpABxZtUTxfr9PrFistXC5XJZYAqiar41O8YpYrZxqc0pTIzY9fbvl eP/i51Vi5SVm8q21OTH9rJ2Qyy26VT2doijqWC9rXOMztrzQmV9tNuRsnOUq2ILq0YlmOvSzH6Ml zs95T8txm37zdlt7Eg05Uoc57QGg3xMA3i7kEypJkolbqY6GLlqrtn+9XrufXlsDqtlmeCcHPSXw kff7Pfntfr+/6vaglzxF4HaTiu4Gmzt/3NYHtfOqA9U9PFrt5JnlcCzRZlX3jg3cXOtBL07gVy0P 3eHdrdWukUH9fDZ2ckcLIVdB9cqtbajjT+E9n+Uc6D7uvftzxLvTuDf8Wc7PZs+HNlh9vc3X9eqk CrkoXm0l8KWFPKW1J4M+RzqW6Rt3WAFg+8SpAKzg/sKMt2GtYeigO+3WFp6NLDgkpgl/XdWNdrdc fWT5Wl7d0w7t8FC9Gy1fdXhPwndFofWMenUQh76oQU8MaXCuNptBxizNPoMT6pCj0+xeR/5SCn8H 6Mi/BjUY2M/W5w56RdVf1vZe9U/hkVlHg0OFvJDe/Tn63Sk8AJ3x/CwFnkjNBgN3WvUpzd/3nmzV lxx4dYS8ATYf0LsfqlsP2WlLfOgAwLrEqQBsyKsbtqFe5QvVX46OU0cEWOGvK7zZZmDRe08b/trD hYcvxSuq/rO3wC1wp3UYHafWXte4rddUG5yxaKu5k6cLzJUCD2Wte+FBWMheGtTPqHP/NB8W2MKM V0H1TzNGZoHCD0335pZ+d5r3/HwOPILNTk6PU1+18GqvLhenDtoD4QcipLcAsCPmTgXggKoTSl6v 13lncEvTNPm9UFJhick9h+YFtVWJiqcXaxM1p9S83W5zzcrXOh1tkiRF47WtD9pi9cHLzQr6Suus pvlvRZfKnRxy9GuPmfGcvF6v1WW4pq+QlqZpc4e/OqaFy+Vyv99DtpvnebW35eVZ7Nhay4/Ho/vi al3UrrurcRw/wzKj8BXzWq+CMskadBVUj2bgaV/dn0PfN6pqh6baYMf+DHn3G/ruFHVOULvE+dk8 gtUGo8axaL6Flnu+9sjAIzJxXu+51F5R8Rpbr83b7Vb7ZfVabp5Ia02BDQBLWTvPBYD/VD+hRpfv JY0pU1vbH12d2mwqGlKdN3SEbGD3utsPH7M8SDMpaN0PrwKFQYPExw0XHV24VysE655RsfuwFmpP n3H0a+3gTiw9bp4qrQ0OOqNa99irfoY3G3j6Na+UVwer9phab18dstmvgpC9VJpxpH+th6/2UnN/ hjymo81B59IS52fz0LQ2GPKwZ+cHUFVtt1R/fnWyvaE6tTRoQoPWQxC4uwBgp3ywAbAhtTvMES2E Z6AT49SQTKF1ux2vq3r/2RuLtAYW4TMJjN7DpUGTHrRmSb2vsfqscSnh6Dh1XJVfRyc7VpiZbsbD OugYNTPHkDZ7j2btwa2PGTrnRsiDW49p+JQUvd0IvAqqfx0a03c/uFv4dnu/G1ju3WnQ0Qk5P2td HdTJ3tw8ME4NfDlvi1MDW+vYq60th3QYAPbi/1o/ywFgp6pjDIdOhzdIc9zi9JGMo8fFF5IkaR2i Xnr+eX87cQR9bXTqs3MAdXfHXqnuhHEtjDZu5xRDgGds8M1q53DvRBm1g9Ic4dsqSZLuiyVkBs9a C70Xe+0BgVdr7wwGS1wF1Zffe9rURluHtN+q1rfu/VP7a+Drmv7utMT5WfvloE7OO3r9+XzOOy/N OB2XUuvr7dgJU05IANg4cSoAx1Gdoa+c+W45tVvrwCxpOSH39rX729FxQC10CLltHnFrXe3eFuLI chxu4Xq9NusNi+k+1+jdfx0Y/dzaOTzijApJ1nqbDblyWydt7G6zerBCrtahad1cV0Ft/3TsrkEZ 6CDdL7zYmaWQBkO+3Op9d5p+ftaMOILV1zvjm9JGksehn5vdh7XW1Ju/EgOARYlTATiIcQVTE9Xu gacEuBM7HHgbPNdeGpHj7H0dkvv9nud5lmXpb1mW5XneDBSKRVrW6OOcAou7h55RISdq7wPCA8eq Wt96u9rb7Huugo5+LndN9e6cvKK3G7O8O9X+Oe78HPTPVgt9S7eRt8feV1dLz3tj96kdAoCtEqcC cAS1pYQXHeZfVbsHfjweswSUIybuDL9xnaW6alxvpyw7/k61g1hMU/hqD6dp2hzivZFwZJBan8ed Ub3n/ywJyyxp9fRGqu85814FgeP95xrpHzWOy7wLzc/y7lQ7XrOcn9VNBB7BLMvuFYF9CO/hugSg ABBInArAEVRv/kNG/s6odkc9bwwRLjy/m2XnjJvmdeKm31bymabptSJku7XTYAtTEww1evdWD2vv C5/99BsURYUnv0MTrnmvgpCqyXEluuHiOC7qr6c3Fb5zOgpUlz4/Bx3B0rgujd70pmwnBQaA9/tr 7Q4AwFTVe9HeVW6W2HqSJLV4ccSdf/Upi95dp2lararL83zi5gbFEKvPMBto6FnUPA2yLFulRnWu jCO886vPbBDe1fCYe+hFMftVUD2dWvfwxHr2pvv9Xvs26Ha7FV0tRuuPPp9nyZprx276+Tm63BUA QJwKwL5lWVa9zV4l2cnzvLoKVjHkf7M355vtWKtaqLTlztdOg+aMAQuVrM51zte6t5fg+/F4jNux Ew/H0m81aZqWPWztai27n2WL1+u19bgXO7mMVosZhKdvcYq9nJ8hVt+ZAMBQBvsDsG+rTJnatJEh /yNMLKTllVoEttwi12crsjvJ6de9LtPoiW57N9r7Lvp4PC6XSxzHbzjT3nmsD3/hAAAzUp0KwI6N WFm71Fx+fcqt+3bGerNNtSHec81KGW0vTt14EfGOVN9SaifMuFWwQhRLq+V5Xiv8b3o8HnEc3+93 hxsAOBtxKgDHMXT07ryDr2tjvW+324xrlSxn4z3c15pOHSP6a/t5xtfVXQY7TpIkmy0Crb3A6/V6 1O8tXo33n/I1Uvimi63kv706Yy+Xy3KJ6qtmlzg/fQ0AAIQz2B8AZnO9Xqv/HD3kf9Eka3rjy41b H7Td3alVEc6SgtUamVKoaJ3uQd5wNr4a7//OeuRiBao8z5/P5/1+r73FFWac22SzIT4AQJU4FQBm k2XZ6MhsYiYSHkPMnsWM3vTxVCv4mulk7WSYZS2dWiNzFSruqCh4IyfVQldB9SwqD271oLfmmwsp otUiV639qftFzfLuVN0Vs5yfo78Wyiumd2NR2+8hAOyUOBWAHUvT9D5E9blJknT8dbTa7Wt4ZLZW nDrOuGhj4qbfU51aTNpQGt3nZm+bv5mYftYaTJJkyi7aUfHv7MnadOFX+qAzqnpQilf6hpH+vYo3 3upvFopTaxsNbGSc8E5eKjaeV27k6gCA4xGnArBv6RDdT5yrS7V6sREtj7gHDk9zuisoA43bXbu4 t6+9tPC4KqTstxZCNddDC9ecznLecDa8tWr6/J50b1xd4VxBeWlcZeigq6A53r/6mxnnZxh6EAcd glnenZY4P0fk8rUW1voSIqS3G496AWDXxKkAMLPa/XbgXfp7Bt2PjiS62wnp/IhtbSEOCA+/ajNI tu6TNE1rIdG4Arc8z2ubm1iaGjU6HBiBrZIu1TYaeGrN3tX3XAW18f7VE3KhvT1iGorenox4d+r+ 5yzn54gTaQtvSoGOukQbAGyBOBUA5jd96oARN+29C8I06xlbQ5C8ofmYWiz4eDx6Ozwio6m2+c45 IkfUF9eSi47eNnfU0EQ1y7LmsZ4l5al1OySOqR3WtxXrDT39aif/LHWdtRfb2408zycmlfPWI1fV dkjI/hzU/oh3p+arm/38HBrRLnEWjdZ7su1iNAAA7JQ4FQDml6bpiPivenM+Lh2L4/jVn5r1jK96 WKR1pVeZRe333ZlgR8c6VBt856DaZn1xd3CTZdmgJaGaafvlcknTNCTDiuO4GfrMNfNvc7Gs7hdS O6zvjLwHnX7Nk3+uGsPanu/uRm+k2OrVIZg3y6tdX71drT0gJNmc/u408fxsvUxqG+p+pxrxqmc0 6BiNO9kAgEDiVABYxIg77epTRsc9zfkB8zxP07R5dz19qs3muPVmm1mWjctSoz9r8d48R2EtZLnd bq2zbbbmm73hZtpYySeKosfjcblcisNX21AxY2Ycx60Ryf1+n3HnNGd3bX3hrYf1nelS8xuLV5F0 8+SfMfadfhWEHLvW5HTevd1s7dX0ss3XEh7sTn93ap6frQe9tZOtuzrLslr/W2ePDW+wat760Obm Ot6UZtwuANDiCQCbUf2ESpJk0fav12v3g2uZy4jNtcZq3a8rfIsTI6H7/f6q5Vq4EN7hkI2Gv8BB e+OVKQdxXPVf73lVmqWkdPAeCTDu1OposPqwjhPv1VM6HjbiGHWcz9WHhR/H58JXwfPFEQnvXqDR bykzNlXoPklmPz+fA49gd4PN7iW/vdpi4EXR8drLTTQ72dvnQT2pbiLkM3rcywSA7VOdCgBLaVau 9Ro9gPc5JBGYsZ4xfLuDehitN3FqtQNDD8f1eg2vGUzT9Dk2tI1+533jntsty7KhO3yhnvQaeoyS JFliKaHlroJC7yyis2jWaYYIeUXzvjstcX4OPS4dj292/vHboE20evX20rqJta5KADgDcSoALGho dlO9FR/63JBsrqgnmnfgfMh2R9zYV4ODtZaozvM8sIY0SZL7/T6in3meDw1Vi4O46D7Jsiz8ha+b 2uR5HhiuXa/X5ZZl7z2IE3dUrfGF5r4I35nRwFc077vTEufnM6zutbfBEd+iDRK+J5frAwBgsD8A bEv5Gd09lPLVMPb7/d56s13kfSN6Ejjrwv1+bx3lWt3ooGHOgfvhPV7t1SiKrtfrXINYO7Yy7ggu 2qVBw+Hf4Hq9vjrz39bV1t015Soo1ZpdpPcVr3Zm4P58w7tTb4OjD/qrUHVQg2+Yn2HePQkADBI/ fXUJAFtSXSa+42O6tpr8Eh/oxXomM46PDu9zdaXveZdagnWNu3KriwsNmlNiFW94dwIAWJHB/gCw LVsY5F41Y5RZjWW7x6tWX7gslSMJvwpKtfeBLbwtAACcmTgVADanDFmqFV5vVoY+rWlmnudxRWCb 1ZVSukPS8pGrLEIFIaZfBYHBaPV9YNF5OQEACCFOBYDNqYYsyy2eE9iH1tyz9suQVCi8wm5r9bnQ avpVEFJ5XXsHcEUAAKxOnAoAm1MNWd6fnhQ1d0UNXWBxaEgVbXiFXflIpansSO9VkOf5iDrTEQks AACLEqcCwBaVy39Xhwa/RxnfdK94U8s64zh+VUhb5LOtm+jYevfDYAvCr4Isy8rV1crftD6ybCHP 8zRNq+8AvmAAANiC2FKbALBN5erYSZI0M5rl1s4uthVSBFfLegpJkpTPzfO8+YDulLYMXu/3u0I8 tm/2q6BjGta9/P/25d6dAAC2QJwKANvVkS1uJLBozZI6tEbDpe4EGbZp3qvgVZy6oy8YNvLuBACw EIP9AWC7yiH/mx32nud5+ADk+/3eHZKWEYwslR2Z9yp49ay9ZKkAAIcnTgWA7UrTtIhp3j+Dargs y57P5/V6fbW0TpIk9/v9+Xx250FlxlSGyLAXc10FUWOC1CRJQp4FAMDbGOwPAAAAABBEdSoAAAAA QBBxKgAAAABAEHEqAAAAAECQv9buAAAAAIfwEa/dA4Dj+mH1o60QpwIAADATd/sAS/B91ZYY7A8A AAAAEEScCgAAAAAQRJwKAAAAABBEnAoAAAAAEMRSVAAAAJzDZx595lEURf/kf/z+f2kURdGXNPqS vrlHAOyOOBUAAIBD+8yjn1n0+Xj9gOJPtyiKoi9J9DWTqwLwijgVAACAg/rMo++XgU95/PuUb3eh KgBN5k4FAADgiH5lg7PUqu+X6Fc2W2cAOArVqQAAABzO97RrdH+gn7fonzz6ls/QH1hR9YsBcwTD ZOJUAAAAjuXXi5lSvyTR/9Lo76z++2KJqn/ylmd9PqLvqUSVHfuVRT9v//3zayROhYnEqQAAABxL NTwqfEm6ItGiXu/vKIraylo/H9FnLoECoGDuVAAAAA7ke1r/TXeWWvMtj75eG21OmIMVgGMRpwIA AHAgtdrSQVlq4e8s+pI0mh3YCAAHJU4FAADgKKpL7hS+Nn4TopnAilMBiKJInAoAAMBx/JPXfzN6 ztNagWpzPlYATkmcCgAAwEE1x+yHG1fWCsDR/bV2BwAAAGAmtYlTpxhd1rqKX9m/lbmfj39D5P+l 0d9Z11M+8+gzH/yseb3qw5d0tv3f3MS87bfu+bnaf8P+GdefojNDZyV+g51eCOxN/Hw+1+4Db5Wm 6ePxiKIoSZIsy9I07XhwHMdv6hYAALBzz/8XRT/WvsH8aNzCTOnS9/SPf74Kj35lf0wF8O0+IOr6 nv4RAb/q7auHfebRz6wrRP56bUmFah0OfNaMertd+JJEX7OenfmZR98v//2zuvN7X+aUQLC38Ynt 1454q47DFNK91kY6Tshml2qnqwthUR/x+m+w/KY69ZiyLLvdblEUVePyPM8vl/8+Zh6Px+VyuV6v WZZ1NCVwBwAAgjSjzL0bl4V95gNSpCnltCGR2c9b9E/+xwsJyel+3qKft6Wym5AOFD4f0ffLyEgr ZCufj+gjHtx+LcCdvf3wJHSWw/RPHv0d8LARV7cLgeMyd+oBpWlaZKk11Sy1dLvduuNUAACA3WhO lnq8kLcQHrp9Pv4rs/2IB+RWteLcWQzqQOHnbXBPBm3l5y36lYU+ODxLrbYf3v/ww1r6iKPPfNhT htryRbTTC4GdE6ceTZZlxVj+mjzPy5/v9/vz+bxer8U/W7NXAACA/WldP+p4achnXo+QviTR1+vL pbc+H9GvrCUU633WvDnd6AMxqCcjsr/ARPVXNjhLLVSDvO72h2aphXG9Cm08XbDxiXZ6IbB/Bvsf TZmN1kbxlz/f7/divtTiN8Xj8zzvnkQVAABgB1oHFxdjrkMm4tyLV7OFFqO2Wysoa6lT6LOy2ZYb +sxb6gFbD0prT75fgsZcN5/YnMGzNbX8eetZ36mZ3L1qv3UezyLI6xj139p+6/5p7f/39I8j9Xdl W7XHD5rR9dVRi6Lof2nj0W+3xwuBQ1CdekzFMlPV35Qlq9XYtHxMtXYVAABgx75e239fTMT5EUe/ suPUmv14tiSAX9Ku5PFLMuBZU2a0rPmZ1X/z7R59a5tes+hJs1Rw6FH7em1/pX9n7funu8az+ddX 7X9Jo295y3nYXXnaGgS37p/W/odXUA6KQau9Kl7vj2f0LY++5Rtaoyna1YXAIYhTD6VMRV+VmiZJ e+26OBUAADiIv7OXg3YLP2//5qrf031Hq93Vmq9i5e4iu1fPmq4WSPUu+97s56Aj1bsAVOveezXk v/n7b/ee9v/Oom/3Se337J9G44ueyT+e28pPq/Z1IXAI4tRjqsWpZRWqEf0AAMDxtdYGNn0+6tHq jvS+wNbwa9yzpmsmfSGzLtRi8X8ajXQ8MeSFNGO4VwWkzQk6g/qf1nf4jO2HNz7dlpe239eFwFGI Uw+lTEtr1aa9VasAAACH0lob2KGIVj/if6PV7Zesjot7RjxrxV3xNYu+JP/9Fz5KPXyay2as1ny9 zd+Et9/c4TO2/57Ib+N1mme4ENgeceox1eLU1olTIzErAABwYMUciN/uPWP/m4pZVrccqg59RYWN 52JNxSSk5X+BEdignRMSd9ZmfR26G2uP721/3MF91fh0W67TPMmFwPaIU4+mmB318Xg0B/g3J069 XC61xwAAABxKEckVuerX64D8pVy6aoOhamCdZu3FhoxPX0hz098bv5nL12zY43unFKjN+jp0N9Ye 39v+oP4XZ3X534qHeBW7uxA4CnHq0ZQp6u12i+M4juOyNLX8UxRFaZrGcVz959t6CAAAsIIvafR3 9ke0Guj7ZXOJ6gHyoM/HUvW/Q3dOLb7sXcN9Ypw6b/vFWV3+N7uNF3Ie4EJgn8SpR5Om6fXa8n6X JEl1ZtUyY42i6H4fMqMQAADA3hUh1I9n6GwAG0xUd6dlltLf9b+/sjV3b3ckt3THnFewQ3+t3QHm l2VZmqblQP4oiq7Xa7U0tep+vytNBQAAzquYDaDwK3u5PPr3y6bXN9++v1/v25+3KLpFUfTvelNf 0vFVh1MmHg30Efc/pttn/t8LrMWpb+j/IMo/oY3q1GNK0/RZUctSiwrW+/3+fD5lqQAAAP8qSlZf DXBebrrPk/jx7IkLPx/Rz9u/Javf0+hX9qaO1buRt/8MEEWROPW0igrWtXsBAACwPUWo2gz+eme9 pNe3PHQ6ziJaLXJVgC0Rpx5NlmVZluV5vtDjAQAATqGcAaBKreJ0RVodMmVt4fMRfcSH3fP/5Gv3 ABjM3KlHc7v9OxlNYPFpsSxVnucSVQAAYN9qZYyteegg3+7R98sfv6nOeskU5ZS1n3n0mb+cVrX0 /RJ9u6+/878k0ddsciPpfz//L1X1DLsjTj27x6PnjTuOJ02z/XyarB0AAHiL2WOpZnj3Tx79PfNG zq5YeOrvLIr6otWQ1cBmOQeqx/1L+u8yWa1/BU5JnLp7rUP1b7fbXNWm8lAAAGCXVJLuTjVa/ZW1 5Kq/sn//OqNB0wgsEtlXXqZKVdgDceruFaP1m7/vLTutsiwVAABwNEvEqf+bu0Fe+TuLvqT1yRZC qoOHHvfuOHXpRH5i+5959DP775//S+ePm4EGcSpRkiRZlq3dCwAAgGm+JH8U9/28bT1aOurySk21 VxqYIX5Jo6/XP2pUQ4o3h8aptcWgehfIGhHT/8oq7ac9Tx/U/mde3yd7nIziPBcCRyFO3b3aKlKX yyUakpCqSwUAAA7iazbzylHVFKwwbz5brSs8ttpxCV9Uqjl1aa+hMXotjmwWINdj+mzYKmff/1xs 6msjTZ7Sfm0+hJ1WT5/nQuAoxKlH0IxE0zSVkwIAAOfSTOhCFi/q0LvcfKvw5apOO1Hm0tPahk+x +r3RjeYTazH952NgAemfR7n5xIntdze+IhcCx/V/a3eAmV2v1yRJZKkAAMAZNUdqN/OyQM0nfr0G PTEwGxrdsT2qHZfwnHrcMPDA9psj5VtH+rfG9IGaR7nZ2uj2QxpfkQuB4xKnHk2WZXmei1MBAIAz ao6S/nxEH/HgVK42QLvwquCxmWE1ZwloPuBUFXnNQei9uygq1ln6MxgNTLSjKPqI+xtvppZfX/Sq ud2QELB5Fr3q/4j2m6dQ+M5ZiAuB0xCnAgAAcCDf7i2//H6Jvqf9oepnHn1Po4+4JeJpbbbQTJF+ 3rq29SsbOY3AfjWT6J+3nqztV2Mm3NZ2OnTE6K2Nf0leVnf+ndULV3tj+kGJfPP3n4+uRPV72nIK Be6c2tJbM3IhcBrmTj2y6hJV3VSzAgAAB/Elra/tU/h8/JegFdFYUTJZpksdVXJfrz3DqJtb/H6J viTR1+yPJzbzo9rK9QfW3EU/b9HPW/Qlif5XWez+M4/+aYzBL4yoviyOeHn4OhqP2kqba39tVrzW 2u/eREciX/y1vpDaI/qI/9g/43ZObTmvKXOz9nIhcA7i1APK8/xyCZ7JJYqiKHo+J8zODgAAsCnf 8p7CtyLxCRxl/PXaX/f3ta3asRrgtvo3XztHitQaR0ZFuvfo3wlfkqDqyyIob+a2ve13Z53lY1oP aGD7PYl82t5+yP4J3Dml6la+JD058iAuBM7BYP+jGZGlAgAAHM3fWVBA1q9fVSIAACAASURBVOvb PSzFSwfXTvbma8cz+ogMivy+5e0rSnU9JexYFInnCIu237tz3nmauRA4B9WpR5NlWflzkiRG8QMA ACf1JY1+PMfPzzg05fk7i76kQWuyz1sPuCPFEWmdVLTDiLittzz5vy4NPBZDT6px7YfvosCd86qu dgkuBE4gNsr7YOL439ET9/t9epYax84QAAAgzEcc/djq7cNn3rJMfFM5T+WUcrmOrK05ieRp9SaS gfvqM+8aut6xlWLC04UOdLMnQ3WfscWJOmiA/2ce/cxaUtrlMk0Xwry2/AZ7PsKyQylH+l+v12qZ 6mjiVAAAINSO7vZrq40vFOtUtyI5eqW58vugfdUdp7ZuZfZjsfTpNG/77z8tXQiz2NEb7AkY7H9M xvgDAAC89J5MR3IU4gDHYumXMG/77z8tXQgcjqWoAAAAAACCiFMPpSxKzfN8zX4AAAAAwBGJU4/m er1GUXS7jVq5EgAAAAB4TZx6NOUKVKZPBQAAAIB5iVMP6Pl8JknyeDziOM6yzMB/AAAAAJiFOPVo 0jSN4/jxeBT/vN1ul8sl7rNunwEAAABgF8SpR1MGqQAAAADAvMSpR5MkydpdAAAAAIBj+mvtDjAz M6UCAAAAwEJUpwIAAACH8L907R4Ax6c6FQAAANinL2n047l2J4BzUZ0KAAAAABBEderRZFn2tmcB AAAAwKnEz6eq+EOJ43jEs16dBnHsDAEAAMJ8xIZdAyzCG+yWGOwPAAAAABDEYP+jud/vHX/N87z4 38fjUT4+TdPl+wUAAJzAx5jRcgCwI4Zyn1eapkWo2nEOGOwPAAAAnIowhG4G+59XnudJkkRjp1sF AAAAgLMRp55aMfa/+gMAAAAA8Io4lSiKoizL1u4CAAAAAGydOPXsivH+AAAAAEAvcerZFatRAQAA AAC9xKmnZow/AAAAAIT7a+0OsI48z/M8v91uxT87ctU4jqds6Pl8Tnk6AAAAAGxHLO06mHHp56vT II6dIQAAAMCJCEPoZrA/0f1+X7sLAAAAALADBvsfTZIk4Q9O09T0qQAAAAAQSPUyXdS3AwAAAKci DKGbwf4AAAAAAEHEqQAAAAAAQcydenx5nud5Xv4zTdM0TVfrDQAAAADslskgDivP8yzLHo/Hqwdc r9fedahMFwIAAACcijCEbs6PY0rTtCNIrbrf7x3Fqt5BAAAAgFMRhtDN+XFAzSw1SZIiMy1G/df+ 2nEOeAcBAAAATkUYQjdzpx5NnudlWpokSZZlrcWnWZbdbrfi5zRNq5OrAgAAAACtxO1HE8dx8UPv 1Kh5nl8ul+LnV0P+fSEDAAAAnIowhG7/t3YHWErvMlNpml6v1+Jn1akAAAAA0EuceihlKlrmpN3K yFWcCgAAAAC9xKnH1DpyHwAAAACYQpx6TKpNAQAAAGB24tRDKYtSb7dbyOPL1FU1KwAAAAD0Eqce Vu9SVFEUXS6X4gdxKgAAAAD0Eqcezf1+L3643W4dIWme53Ecl/8UpwIAAABAr/j5fK7dB2aWpunj 8Sj/mSRJVAlM8zyv/jWKovv9/ipOjWNnCAAAAHAiwhC6OT+OqZaodujIUiPvIAAAAMDJCEPoZrD/ MeV5Xo76f+V6vT6fT8P8AQAAACCQuP348t+i30P+0zQNTFF9IQMAAACcijCEbs4PungHAQAAAE5F GEI3g/0BAAAAAIKIUw8rz/Msy1oH9cdxnKZplmXv7hMAAAAA7Jnq5WNK0/TxeBQ/Nw9xHMflz/f7 vWMeVfXtAAAAwKkIQ+jm/Digaloa9cWpUWei6h0EAAAAOBVhCN0M9j+a6hD+6/Xaev0/n8/7/V7+ 83K5vKFjAAAAALB34vajKStPu0fxF8o5AV492BcyAAAAwKkIQ+imOvWYkiTpzVKjSilrnudLdgcA AAAAjkCceihlKhqSpVYfJk4FAAAAgF7iVAAAAACAIOLUY1JtCgAAAACzE6ceSjl4v1hgKvzxgZMD AAAAAMCZiVOPJkmS4oc4jrsfmWVZmbqWa1IBAAAAAK+IU4+mOsw/juM0TZsD/7Msi+P4drsV/7xe r+/qHQAAAADsWPx8PtfuAzPL8/xyuQQ+OEmSjolW49gZAgAAAJyIMIRuqlMPKE3T5/NZjvrvcL1e LVoFAAAAAIHE7UeW53me5+Wg/lKSJGmahsyX6gsZAAAA4FSEIXRzftDFOwgAAABwKsIQuhnsDwAA AAAQRJwKAAAAABBEnAoAAAAAEEScCgAAAAAQRJwKAAAAABBEnAoAAAAAEEScCgAAAAAQRJwKAAAA ABBEnAoAAAAAEEScCgAAAAAQRJwKAAAAABBEnAoAAAAAEEScCgAAAAAQ5K+1O8DWxXE85enP53Ou ngAAAADAusSp9JCHAgAAAEDBYH8AAAAAgCDiVAAAAACAIOJUAAAAAIAg4lQAAAAAgCDiVGCIj3jt HgAAAACsRpwKAAAAABBEnAoAAAAAEEScCgAAAAAQRJwKAAAAABBEnAoAAAAAEEScCgAAAAAQRJwK AAAAABBEnAoE+4jrPwAAAACciTgVAAAAACCIOBUI8BG3VKSqUQUAAABORpwKDCRFBQAAAM5KnAoA AAAAEEScCoyiRhUAAAA4H3EqAAAAAEAQcSoAAAAAQBBxKjDEj+d//wsAAABwMuJUYCBZKgAAAHBW 4lSgT7nqlCAVAAAAODdxKjCKaBUAAAA4H3EqEKY1Py0LVwEAAABOQJwKAAAAABBEnAoAAAAAEESc CkxjvD8AAABwGuJUIICFpwAAAADEqUCPjuJTGSsAAABwMuJU4DUD+QEAAAAqxKnABApUAQAAgDMR pwIAAAAABBGnAgAAAAAEEacCfXpH9JtiFQAAADgHcSoAAAAAQBBxKgAAAABAEHEq0Kl3pD8AAADA aYhTgWnkrQAAAMBpiFOBOViNCgAAADgBcSrwgoQUAAAA4E/iVAAAAACAIOJU4DXzogIAAABUiFMB AAAAAIKIUwEAAAAAgohTAQAAAACCiFMBAAAAAIKIU4HJrFgFAAAAnIM4FWjzEa/dAwAAAIDNEacC AAAAAAQRpwIAAAAABBGnAi+YERUAAADgT+JUYCamWwUAAACOTpwKAAAAABBEnAo0fMRG+gMAAAA0 iVMBAAAAAIKIUwEAAAAAgohTAQAAAACCiFOB+XzEa/cAAAAAYEHiVAAAAACAIOJUYCY/nmv3AAAA AGBZ4lTgT+MG7MtSAQAAgBMQpwIAAAAABBGnAgAAAAAEEacCDUbuAwAAALQRpwIAAAAABBGnAgAA AAAEEacCs/qI1+4BAAAAwFLEqQAAAAAAQcSpQMVHbB0qAAAAgFfEqQAAAAAAQcSpAAAAAABBxKkA AAAAAEHEqQAAAAAAQcSpwG8f8dQWLGMFAAAAHJo49eDyPM/zfO1eAAAAAMAR/LV2B1hKmqaPx6P6 m/v9nqbpSt0BAAAAgN1TnXpMcRwXWWqSJNfrNUmSKIoul4tKVQAAAAAYTXXqAWVZVvzwfD6rv7zd bpfLpfpLAAAAACCc6tQDKkpQ7/d79ZdlxgoAAAAAjCNOPaBimL9pUgEAAABgXgb7H1DrcH6zpgIA AADAROLUgytS1DzPb7db1JgBAAAAAAAIJ049uMvlUv58vV7NAMA7fMTRDyueAQAAAAdk7tQ15Xke x3Ecx4GPT9M0rkjTtHcI//V6vV6vSZJEUXS73SxIxeIEqQAAAMBxxa3zbPIeaZoWy0b1HoU8z6t1 plVJkoTMi1q2cL/fw2tU49gZciYfcRTNkYeqTgUAAGC3hCF0U526mjzPiyw15JHVLDVJkqLatPB4 PELi0TRNi2dZkwoAAAAAxhGnrqOj2rSpfGSSJM/nM8/zPM+fz2e5rtTj8aiGpGmatgasxS/FqQAA AAAwjqWo3if/LbAotXxW689RFKVper1eb7dbFEWXy6UsRH/VfvF0q1EBAAAAwDiqU98nz/Pb7TYo S42iqFw86nq9dvw1aoStzVWnik2LUwEAAABgHHHq1pXxazMeLZTzqJZxajEJwO12S9O0qIfNsiyO 4+LB4lTaFetQAQAAAPCapcpWU50+9dVRGPSYJEnKRLV1btbr9foqk33FYnYnUsSpP+Y43B/xPO0A AADA2wlD6Gbu1E0r49GyBLVDdRqBNE3LRaui14tThSjKWlfkLWyXJKoAAADAEYlT96EjDO3+0/Sh /dJMAAAAACiYOxUwcSoAAABAEHHqppWD/QEAAACA1YlTgd/MdgoAAADQSZwKzE0sCwAAAByUOHXT pi8kBQAAAADMRZy6DyZRBQAAAIDViVM3LaQ6VdIKAAAAAO8hTt20Mk59PB6vHlPGqUmSLN8jAAAA ADgvcerulXGqiVYBAAAAYFHi1K0ra06zLGt9QFm4+uoBAAAAAMAsxKlbV4akt9ut469G+jPVj+fa PQAAAADYOnHq1qVpWkalcRxX/5RlWZmxKk1lvI+4/zEAAAAARNFfa3eAfnmel0Fq8UOSJNXFqa7X q4lTAQAAAGBp4tR9eD6faZqWEWo1S73f74tmqbWS2KGeT0PIAQAAADgIcepq0jQdFDXmeZ7neXVQ f5qmbxjjLw8FAAAAgII4dU/SNM3zfO1eAAAAAMBJWYoKAAAAACCIOBUAAAAAIIg4FQAAAAAgiDgV AAAAACCIOBWIoh/PtXsAAAAAsAPiVAAAAACAIOJUAAAAAIAg4lQ4t494qZH+H/EizQIAAACsR5wK AAAAABBEnAoAAAAAEEScCixgoQkEAAAAAFYlTgUAAAAACCJOBQAAAAAI8tfaHWDr4njS+uzPp0Hf G/Yx6eACAAAAnI04lR7yUAAAAAAoGOwPLEb1KwAAAHAs4lQAAAAAgCDiVGAZP0wTAQAAAByNOBUA AAAAIIg4Fc5NDSkAAABAMHEqnJV1ogAAAAAGEqcCAAAAAAQRpwJLUgMLAAAAHIg4FQAAAAAgiDgV WIx1rgAAAIBjEafCiYk7AQAAAIYQpwIAAAAABBGnAgAAAAAEEafCKX3Ea/cAAAAAYH/EqQAAAAAA QcSpAAAAAABB/lq7A2xdHE8aFf58WjseAAAAgIMQp9JDHgoAAAAABYP94TXrNQEAAABQIU6FTodM VA/5ogAAAACWJ04FAAAAAAgiTgUAAAAACCJOhbP6YZExAAAAgGHEqdDHTKMAAAAARFEkTgUAAAAA CCROhRcUpQIAAADwJ3EqBBCtAgAAACBOBQAAAAAIJE4FAAAAAAgiTgUAAAAACCJOBQAAAAAIIk6F NtaeAgAAAKBBnArBZKwAAAAA5yZOhZMRCgMAAACMJU6FMAdLIX881+4BAAAAwP6IUwEAAAAAgohT gYUdrLAXAAAAODFxKj3iadbu/ijivxmZVQAAAAA4EHEqPZ7TrN39ORwpECyS4iO9IgAAAIA3+mvt DsCGiR0BAAAAqFCdCgAAAAAQRJwKAAAAABBEnAons8oMBlb3AgAAAA5BnAoBTKIKAAAAgDgVQhWJ qipLAAAAgBMTpwILU9sLAAAAHIU4FXalVh47qFpWaS0AAADANOJU2I/ReaggFQAAAGAO4lQIttag 9Y94hjxUogoAAAAwmTgVtmqWFBUAAACA+YhT4YUVa1F7HyBmBQAAAFiDOBX+tNmkcpaJU9fKiAEA AAAOQZwKO1ekpb1hqyAVAAAAYDJxKuxfR5a62WJbAAAAgB0Sp8ImhcSgolIAAACA9xKnQsOPZ9fQ +O2vBLXx7gEAAADsljgVtu1VNtr9++1nvgAAAAA7JE6FIba8oJMIFQAAAGBh4lQ4LukqAAAAwKzE qQAAAAAAQcSpULGRcs6OboybbaB41pZnKgAAAADYA3EqbEZvmCsPBQAAAFiVOJUe8TRrd/8Qmimq XBUAAABgDX+t3QG27vmU3G3Dqwi1+P1GpikAAAAAODTVqbBnylQBAAAA3kicClvSLDJtriIlQgUA AABYiTgV/rTrsHLXnQcAAADYPHEqbNgs8ehGMlazuwIAAAD7J06FfdpISBpoX70FAAAAeEGcCqPM W2upchMAAIDSR+w+ETZLnAoDva3QcuiGVIACAABsnJwU9k+cCttQ+0ANyUarj3n1eBkrAADARvQG qcJW2ANxKhxLkZ9KUQEAALajNSet/VKQCjshTgUAAAAACCJOhe1RWwoAAACwSeJUAAAAgGW0DuE3 rh/2TJwKAAAAsBLLT8HeiFMhiqKBH2DLDcY3zB8AAOAMRKiwW+JUOC7hLAAAwIqKzDQkOZWuwn6I U+GgZKkAAAAAcxOnwlib/fJQkAoAALCuKTeMm73ZBKIoEqfCH7YQRG6hDwAAAIwjDIWjE6fC2nzW AgAAAOyEOBU2Q10qAAAAwLaJU4F3UYcLAADwigob2AlxKgAAAMD2KEmBTRKnAm/hi1YAAOCoytxz YgDavG+SqML2iFNhFOEgAAAApWbuWf3NlFvIj1ioCpsiTgVf9wEAADBWszR1riAV2CRxKkwwPYeV 5AIAAJyQmBV2S5wKAAAA8EayVNgzcSr85vMMAACA2bnZhGMRp9Ijnmbt7gMAAMAGNEPVjphVAgsb 9tfaHWDrnk9v4ospJk798TSDKgAAwHkJT2FXVKcCAAAAbJ5CHNgGcSpsw0m+jfTxDwAAnNmP51nu /uC4xKmwAT5NAQAADm/orV/18WpTYDPEqbAGH4QAAACHNLFcRrUNbJ44FaYRjAIAANBqejbabMFN KKztr7U7AGflIxAAAGDXFr2tU6YKW6U6FQAAAGBWwlA4LnEqrMpHLAAAwAE0b+7mut1z2wgbI07l 9KaMzvCpBgAAQM2gW8WQB5ePMWscbIA4FaIoGhWMylKHsscAAIADm+u+0q0TbJs4FQAAAGCgFQtF P2JlqrAicSqsx1eOAAAAALsiTgUAAAAACCJOhbczKAMAAGC/mvd05dBDYxDhBMSpAAAAAABBxKkA AAAAAYw1BMSpEEWGYwAAAAAQRJwKAAAAMNZ7CnSaW/mIVcvCKsSp8EY+7QAAAHatdk/3zsGOBlbC NohTAQAAAIZQKAMnJk6FlfheEQAAAGBvxKkwma8lAQAAAM5BnArTjCsyVZoKAACwd+7s4JTEqfAu ilgL9gMAALBHKy5CtYXtAr+JU2EOIsJAPvgBAABGa95SVe9GP2I3p/AG4lSYiQ8tAAAAgKMTpwIA AAAABBGnwsKMtgAAAAA4CnEqvIVEFQAAYL+2dk9nXQpYjzgVAAAAACCIOJVz29oXjAAAAGxN885x 3eJQpamwKnEqvJ1PPgAAgL3YWpYKrE2cCu/lcxcAAABgt8SpMJmEFAAAAOAcxKkAAAAAAEHEqTAf C1sBAAAAHJo4ldMzVB8AAID9+ogV98A7iVPpEU+zdvcBAABgOAEl8MJfa3eArXs+FW/ORyUsAAAA S5D/wruoTgUAAABoI6MEGsSpAAAAAAGTkP54bmjQ4XZ6AicjToXF+BoTAAAA4FjEqZzYjHGnbwUB AAAATkCcCstQmgoAAHAYamiA38SpsABZKgAAAEsT8sIaxKnA24mbAQAAZiFRhbcTp3JWEr21+LAH AAC2zN0i0EmcCkvyMQwAALBTe7mhU7MC7yVOZf+mfMK981PHJxwAAADAzolTYW57+QITAACAXmVl jBIZIIoicSoAAAAAQCBxKgAAAEAbFalAgziVndjLCPq99BMAAIBD+ojdmcKixKls0oi3/i18Wvje EgAA4ABqN5ju9YAKcSp7UPsk20JyOpRPXwAAAID9E6eyMdWodI+xKQAAAADHJU5ln8wFAwAAAMDb iVPZtsBh/sXvNxuwGukPAAAAcAjiVPZj45kpgziOAADAprhJAcKIUzmctT4ClaACAAAcwGFu7gTE sAxxKif2hs/Iw3wMAwAAHNgxkscfTzeh8AbiVFiMjzEAAACAYxGnciyB3yh+xLJOAAAAAIYSp7JV IcHoq8dsapiG3BYAAGCzPuJt3UICmydOZfNm/2DzSbk6ETMAALBx+7ptqc6auq+eww6JU9meXced PrcAAAD2zp0d8Jo4FQAAAAAgiDiVzZi3KLXa2vvLXX2TCQAAwIp2Pe4Ttk2cytomTvu9wU8IWSoA AADAQYlTgZVsMAoHAAAA6CROhWWoUQUAAAA4HHEqW6JcEQAAgLX8eB6tMsZdNixAnMoaijf06W/r 3Z9zE2dl5XicEgAAAMA04lQO4WDfHwIAALA6d5pAG3EqZ6IyEQAAAIAJxKlsmy8DAQAAYAqlRTAr cSpH0Ru8zjVhKwAAAMfgDhEYTpzK3qhXBQAAYJxX+ak7TSCYOJVVLfFNYOunoK8cAQAAAJhMnMoR +V4RAAAAgAWIU3m72QtFhacAAADQwZBNmI84lf348ZScAgAAMI/DJ4zFHfThXya8nTgVAAAAACCI OJVt8HUZS/iInVoAAADAjMSpwNFJVAEAgF4mlwPCiFN5o2qpYHjC5SPtkBxWAABgRYevunDPBYsR p3IsPjB45fD/bwkAAKDg1hiWJE5lk5pv/SEfBq2PEaIBAAAAMBNxKttTpqLdEWrx1xHfufma7gws QgUAALziZgGYQJwKnIz/5wQAAGfmjgCYRpwKAAAAcHTG8MFMxKm8xdbeso33BwAAAGA4cSo94mmi aANZqvAUAAAAgDmIU+nxnOa/hlYPVaHkbAQAAABGEadyUCpSqZKfAgAATcWdo/tHYAhxKhvQ+tHV /Xnm0+4wBJ0AAADAfohT2aERWar4dZuWyFLlswAAAMBixKkclwgVAACAUq324jz3jOd5pfAW4lS2 xFs8U6hLBQAAABYmTmVti0ao8lkAAAAA5iNOZTNEn2fjiAMAAG9jNBswE3Eq62lN00RsAAAAMAu3 2LAAcSrb0P0WP+MHgM+SM/C1MwAA/7+9O01uFGnXAAo3al+SN1O1DMnLcG3GeGW6P+jmoxlSL/N0 TnR0uGSGVJKG1KMkAYBliFPZyCaxpiwVAACA7EofD9vv1AAUmEacymVc52IJAAAAwDLEqZydFJWv V+/3sb6VBQCAc9Pnb1AhMJk4FQAAAAAg5NfWBQCYg69YAQCATj4sALMyOpUFuFZxCBoqAAAAMJA4 lbk1Iqp0YmViU+bVaG+RBiZUBQCAK/OxFBhInAoAAABwalJjmI84FbgSfQgAADix4M1nPhcAE4hT mVXnpau8ULlcAQAAsKbER9RruvJ7h/n82roAnMigWVMBAACA1chSYSZGp7Ii5272SfQPAAAAxIhT gTNKZ/ft30pUAQCAS/EhCMYSpwKXYRpfAAAAYBpxKnBqwlMAAABgPuJUAAAAAIAQcSoAAABwAe5d y1QCzECcykzSk1g3ztdO36xAMwMAgMvynKU09QMTiFNZl4SL3dKfAACA0/OZFJhMnApsp+zKTM8x G1vQQwIAAACWIU5lGWW8JdViBbJUAACgzf1nwDLEqcA1iFkBAACAycSpAAAAAAAh4lRWZ5AgbeNu w5ly805nO3Q3EAAAcHo+lcM04lTg2vQkAACAazKgBEYRpwJXJUgFAAAABhKnAicyNCGVqAIAAABD iFMBAACAs+i8gd1ACmA+4lQAAADgsEwACqxLnApQoysGAABHp1cPLEmcynzcPcEUE3s8mh8AAACw PHEqAAAAcF7GXiQYyQvDiVOBsxjdSdK7AgAAAGLEqcxKLMVQ2gwAAABwHOJUAAAA4ODctA6sRZwK bM0AVQAAAOAgxKkAAADAMdUHpaYHqBrGAcxEnMoC6lcpVywW4l4eAAAAYHXiVOYg2GIr2h4AAACw InEqAAAAAECIOJWZuKkfAAAAgLMTp7IYASvHZQ4BAADgxHxghwnEqSzDqZklSDkBAIA4n0yBBYhT gQNaNFedd+MiYAAA2IQs9S1VBKOIU4Hd+JMLHwEAgMESnyMkhsDcxKnMzbWK42q0XtkuAAAA8F/i VAAAAGA32sMaDHQA9kScCgAAAJyL+yYHEVjDEOJU4Ph0lQAAgIoPCMCSfm1dAIAh2t+a7rarVBW1 /OHr9b8fAACAcf7k/+tRG1M5hWqEsYxOBQAAAAAIEacCh2WYJwAAALAucSpAln29hLMAALA2t5nv h2MBYeJUgHXppgAAwAh/cn3pxalhCBCnAozS188Y+joAADBIOld12xmwMHEqsD++dgYAAAB2SZwK HNPS3zlPyXPFwQAAXIFOL3BJ4lSALeh6AgBwbgYZACclTgV2oD7U9IhdrnFlPuI7BQCAndCdBjYi TgUOYtve0rx7r7amCwgAAJ0aXWU9Z2A3xKlM5qrGlWn/AAAAcCXiVAAAAACAEHEqsGNvZ6+vT7q6 UAEWXR4AAHbiBF3ZpT8dAGRZJk4FDuAEHTsAAGCEoZ8FJKrA8sSpwBEc9DlUOnMAAMD++eQCQ4hT mYMzL9MdsRUZNgsAAJyGDzgQI04F9mqTa3kk1dXJAADguPbcm22Ubc9FBS5MnHpyRVEURbF1KWAm +xzBWnXy9PYAAGA03WngIMSpp/V8PvM8//j4+Pj4yPM8z/Pn87l1oQAAAADgwMSp53S/3z8/P7Ms u91uj8fjdrtlWfb5+Xm/3zcuGexfYgzsEl+Y/8l9Dw8AwNkkurjp3u/QvvE+72A7FnUIA/3augDM ryiKn5+fLMu+v7+r/LQoio+Pj5+fn6IohKowVbuTJxIFAOB8yl7u2wEHwTyus8+sI70tWSoMZ3Tq CZU39T8ej3pser/fH49H9VvgDb0KAACOyy1QAIsRp55QOTS1PQR1kUGprtCckiwVAICL6wtkfQYE Ls/N/if0/f2ddYWnRVGsXxgAAAAAOA2jU0/ofr93DkQtH07lZn8Ob+Who75+BwDYIZ20JQRrtVxs tUPgWAM7I07dUlEUeZ7nefTacL/f85r7/R4ccFruKMuy2+3mOVSwAbMHAACwqEjmONcynJ65dyFJ nLql+EDRMg8tJ0Wt/Pz8fHx8vI1H7/f7x8dHlmW32839/jDeyl/Cgqn6NQAAIABJREFUAwDAgdT7 ydP7zOktGKwAbEqcupmiKBrxaGLJMg8t3W632+1W/fPn56cvUX0+n1UI+/39LUsFAAAAgCnEqdto JKRp1ZK32+31ehVFURTF6/UqHzmVZdnPz087Ks3zvJws9fF4vF4v9/gDAACcXHxY6Ii7uaeMOe3c 3aANNkakGqAKbEecup6iKJ7PZzn/aTxLreekjcz0fr8/Ho/y58YGq5lSX6+XZ09xMOmO0Tm6Te13 YQ4BAABWM6Lzuc/+6jk+HQBHI05dT1EUn5+fwRv8K1UYWiWnnb/NamFr+eJ6M6W6gDGjYHM6dKvr K/w+e6gAAOzToR8WNEvJD/2hYM+O265gLeLUvavi175BptU8qlV4Wt7jb1AqAAAAAMxLnLqe5/P5 qqlmPk2IDC+tYtPGwh8fH3kXk6iyX+f4ern9Ls7xvgAAttIehmn03GiRqksss9ua1+UGViRO3bUq Ia2GoCYMnUYgqDOT/Z+/7xaYbIk3BWsou3Q6dgAATLTbEHMndLxnoQIhTJx6DIkhpe1fvZKGTqia 3trr97sFJhtcWbBbbzsoOsoAAAsZ3dFas4fW3lf1ynE7ikNL3ugzy/iA/RGnAgAAAACEiFN3behI UmBt8W/Lh36vftwBCAAAM7pap2gn73fKZLWJMbazMF4V2Jo4Fdi9q3WYdtKHBgDYoWBPSYeqof04 r80NKk/1ieBqHw2AXRKnAvumwwQAQJ/OSG5cbrjDwLF0wVL5CADsmzh11xJPoAIAAAAAViZOPQaT qMJ+v6NuF2x6Uevf9u9zPAIAwLyWGBx66H7UbkfLdqqKeqAy07bbz1ywM+LUXYuMTpW0ckI7uYqP KMb0J1PpgAIAjKAT1edYsWzdTj4UALSIU3etilN/fn76lqni1NvttnyJ4HqmJ6QAAADAWfzaugBM VcWpJlqFsznoOAIAgLnM+KSpzi0c9OvwvhrQewRYhdGpe1eNOX0+n50LVANX+xYAljKx/33Q7jsA wOHIGfuY85QGH1IgQJy6d1VI+vn5mfitO/0BAAAAYGni1L273+9VVJrn//nC8Pl8VhmroamwoMg3 tDN+i+sLYQCACCMr+5ygZnSJgR0Tpx5ANTtqlmV5nud5fr/f8zyvstTH47HcxKl52t83CyxUKi5h D12oRhn6itR+fVDh9/BOAQB2JZ4DxqPD9gLlK3/yA8eO2ZEzU/ZP64Iu4tRjeL1e9dv5q/lSsyz7 /v5edGjqK+33mwWWKxgAAAAwM6M94B1x6mbu9/ugzLEoiu/v71vN4/F4vV7LjUuF7VUXcld0AICL mHc0XGNrc228HNA6y9b6xsyOXn10GfbQ5d5DGQDe+bV1ARjgfr/Xb/wHDi/eX9xPHxcAYB2HuMv4 T97dQ2t03uqLLd2vG1pvs9fz1+sYxw5gLKNTAQAAAABCxKkAuxEZpFA9MAEA4FKCN9cPfSDVHuYW GDR1QOdiO+kc7qQYAAsTp/KOKyKb2Ntd7XsrDwAAS5trdtS+ja+2Vp+lu7iN7X+9UnuMFEafHNgH cSoAAAAAQIg4FWD3DBIHAM5qn/2c9LjUGcu8t7e/7fBPg0/3Zm/tE3ZDnAoAAACsQmYKHJ84lQBf ScFc+rqPupUAAJW9fQDZW3lK63cgr7BHgABxKgAAAHOLPMepXGChe+dHP+tp+op9W4hveZ8BLgBZ lolTAQAAAACCxKkAQ7jhCABgdocYjHmIQq4g3R/u/K0uNHAu4lQm0J/gspboEca36U8PAOCgpk9H MNG8/dhxW/t6/fMfwDGJUwEG0vMDAACAq/q1dQHYu/xvlmVZ9rf/i9PEr7Ls9RI8AQAAMTu/C2fb 4s279+AQgXKx5d7412vvB53yABlTAjVGp/LG63f2+p29OiV+9a+tiw8AAMCSBG3AxYhTAQAAYBk7 H3q5kyR0xOOtALYjTgUAAAA2Ii0FjkacCgAAwIk04rmdjw9dTr0e5oosRZ8A4lSAqHX6jum9tD8M XPbjAQDAmhKdrj/5sbtk7f7n9H6v1BU4NXEqAAAAUGMyU4B+v7YuAAfnOgoAAFDpG6l6xBGsiY97 s3wS9HESOCajUwEAAOAylri7H+BKxKkAXNIRR4gAwP6lp3ovpxmdZbLRvgRw6QGVe/b1+ue/9uvr 7D3x+ukrH7gScSoAAAAANRJw6CdOBTi4zsEdhl4CAHuwUJ/kWEHPEpXQqIENKyQ9+PRYR4qEWQaV w1mIUwEAAAAAQsSpAPvmK30A4OjmvZlm897RJgXY/F0D8C9xKsBhud0GALiUzucsTd/m21d2Zc/F 23PZAOYjTgUAAAAACBGnAnBqxvACwGqWu+xedtjjuEdOLTGMd6jNCwCwGHEqAAAAAECIOJU38r9Z /jfLO/W9XrN18eGY5voy38BMAGB9szx4qj6+sq9rFO8yvV1y3C5G99mWGLm56GhQQ02vxhGHJHEq b7x+Z6/f2atT3+s1WxcfAAC4KpEQAAsQpwKcxZ/ccNSmdoWoJQDYykKX4M7MtBrcmkhU9xO2jh48 u6j91A/AzohTAQAAYK8WmnAAgLF+bV0AgGPavOdqiOUgqgsA1jTxylvvaA3qdG3eQ4v7es3QPznQ +wU4EaNTAQAAAABCxKkAx2c+0Aa1AQA0HOXB97OXs9rgxEkDjIS9JscduohTAQAA2NTbx0Yxjipl Cu0HeohTATij+gBVg1UB4NxmCX2Omxwdt+QAxyROBQAAAAAIEacCAACwG31jLTtfnzgwc7lxneNK u/Q408j2jXUlwV1fkGWZOBUAAIC9kOUBsHviVIDd+3p5PsMb1ffkwS/M24v5ph0AVrB5l6YqwMTH 3A/a3Qo7AmBF4lQAAAAuY94EM7E1WSrASYlTAQAAAABCxKkAJ+XudQBgHX/y7Tse64z0rO+lscdj DTU9VmnZlc3/2GEHxKkAAAAAACHiVIBz2cPwkKNQVwBAQ3vY5sSBnDOOAzWkFGAfxKkAAABsYW/5 4N7KA8Au/dq6AAD006cfoRpwGhx5+idXzwBwZm8v9H0LjOghRFaJ704XBWCXjE4FAACAyebNUgHY K3Eqb+R/s/xvlnfqe71m6+LD6ehqAwCsoNHpSvTBdM8ALkacyhuv39nrd/bq1Pd6zdbFBwAAAIDZ iFMBLuAKz6+/wnsEgJ34k89/5e0c4zlo4OfSo0SnbP/rZRAr56HjzeWJUwEAAADo4psAaBGnAgAA AACEiFMBDiL+PAQAgPW5/7fP7N02/UCATYlTAY5GBxoAAAA2Ik4FOLXTjxOZ9w2evroAYF4jnklV fTHsG+I09QOwV+JUAAAA2BNZKsCOiVMBAAAAAELEqYzllljYkAEL83JCA4Clnaz3MuPbaW/qZHUF cDriVAAAAACAEHEqwF69HZhg5MJCDFYFgIjOK2aif1L/1XG7McctOQAzEacC7JKeOgAAAOyPOBXg Gv7k//x3aOnyz/Lu2hs5eqUBwBSN6+ASl0XfIsPO+SOF/xKnAgAAAACEiFMBAAAAAELEqQAc0+w3 G7qpHwDWvxoe4ibiQxQS1qTnzLWJUwEAAAAAQsSpAAAAAAAh4lQADsWNRQAX50KwuRGHwM3ycAKN P2RnYy5MnArAqfn8BgAAwHzEqQDX8yc/yZfJ5btY4r2co34AdmvoaXbG07IzfJs6AcZx9uCqxKkA AAAAACHiVAAAAACAEHEqb+R/s/xvlrf1vf5fWxcfLmDo3KDxW3LcvFOfFUFtAECQicsBOLVfWxeA vXv9zrKsq0tUJgu6SgAAAABchtGpAAAAAAAhRqcCHFlkhPigu9QPMfDcffcAV3CIS9JZdVZ+5Prb WOXrlf3JHUQATsboVAAAAACAEHEqwPHNNehjP6M+O0sSL15VIfMOh9lP/QCcyYi7KJii/qDFyMIA FYPNIcsycSoAAAAAQJA4FQAAAAAgRJzKOwbzwyHU/1QH/dme9Sa+EecupzuArZz1YnQag+YHAICz E6cCAAAAAISIUwEAAAAAQsSpTODGWDiH4B18W93lV+53xr07dwFwUMe647684LrsAnA64lQAAAAA gBBxKgAAAABAiDgV4MKWuGdw0MN/y4XfLj+9nF+vwTcb1nd6rJsrAU5phdPyxM3ueeacbIHJc9rq l1r3+MPJ+KOGGnEqAAAAAECIOBUAAAAAIEScCnBVjdv9lrv7b6ubH6s7kjpvTRp3v1J1p6Tb/wEW 1Xmabd/vnz4h7/ZcvegsN1Wd1H8YVKrI8m77hcvy5w/iVACuSC8QAACAUcSpAAAAAAAh4lRiVrsp GBit8Tjd8p87HIbZdwLZ6sSywyoCOIHRZ/WJE6oMumO9c7H43tNLHqvDfKzSApurutDOHlySOBWA y5CcAgAAMI04FQAAAAAgRJwKAAAAABAiTmU4c6PA1az8V7/o7vru94/PA+AcCLCyuU68pzmBT5xe ttrIdGbRgWtq/O2f5uwKYeJUAE7E5zoAAACWJE4FAAAAAAgRpzKWIWCwT7P/bXbevNN3R8/Q12f0 9Rr/3p3QAOYy6IRfv2m9/GHo6kMXO9kdqbO8nbnqx8UUruxkZ1d4R5wKcCKX/SRz2TcOAADAusSp AAAAAAAh4lTeyPM8/5vlf7O80vhn0tbFh2urj9ncyfjN9H1AjUcVpxde4h3tpJYAGGTok+7jC69w +2p7xoN0SUZMcZCNmkthxPLApeg5c2HiVN54vV6v39nrd/aqNP6ZtHXxAR2dadQeAAAANeJUAAAA AIAQcSoAAAAAQIg4FeACRtyx3jnn2rwi2+xcZoUb8N3jDxAx7uqw0Dyn09eaa7Mj9l6fGrW9eufM p43ZxvsmkDX/KQDMTZwKAAAAABAiTgUAAAAACBGnArCkzrsXR9/m38mN+QA7MfG+8iVWT2zz7e72 cJv8IQoJUHJG4jLEqQAcmSwVAACAFYlTAQAAAABCxKkAAAAAACHiVIDLS9wvb/6jiPq0sABk2bDJ spfY76BfZbEz+fSJvxeqjSmbDa6bnlrHxDsAXIw4FQAAgFFkqQBcjzgVAAAAACBEnEpA/TtnN7TC oQWHkPT9pZf3QtZv4Rx9TljuZDJomEx74UGrOyUCHEL7dF2+MmJygKGvT7HPq0znhdIYVaC0zxMX zE2cCsBV+ewHAADAQOJUAAAAAIAQcSoAAAAAQIg4FeAy5r23vT6Dat9vZ587qXoL5Q/b3q1vZiiA RY0+yU85P0fWbcwkPm6PfdO5jivSCgsDAP8SpwIAAFyb+cQBIEycCgAAAAAQIk4FAAAAAAgRpwJc m5v7EgZVjhnogMsadwLsW2v9C9Pb8icWaEyi2l4lPkcqAHAQ4lQA6CJoBgAAoEWcCgAAAAAQIk4F AAAAAAgRpwIwk8ZkcBeZGy74Ni9SG8Appc9gkYlHy2XKH9LLJyZaafxq+pQsC02Q3bdk5ySqO7w6 VNVS/tBZS+bDAeDaxKkA7IAPZgCwAhdcAJhMnAoAAAAAECJOBQAAAAAIEacC8K/RNwDOMvVbY7K2 t4stZ/r0fDucC2/PVBccUeIv9wR/1PW3MP3tjJsjdfZqdJs/AMxEnAqAj1gAXIZLHgAwjTgVAAAA ACBEnAoAAAAAECJOBQAAAAAIEacCXEzwiU87cYhCNpzgGSzAiR36HHWsS1jQ+o9YjCzfXqV85Uw1 D8zr0NcXGEicCnBJPg4BsCsuTADH5RzOxYhTAQAAAABCxKkAAAAAACHiVN7IS39rP5T/xWxdfCBs 4h06y02WtLdbh4Ll+ZPPXydmpIKTmeWPOr2Ruc4bje2U/3y78XXOWo3Tcvos3Tcl6EKCNTClDGtO vbq3KzIAbEScyhuv0u/aD+V/MVsXH9gfH8YAWEj6cUkuQADAHMSpAAAAAAAh4lQAAAAAgBBxKgAA AABAiDiVMI9AgYvbcMq59Fx469vDc0uAPZv3D3nb00L7IVR95Zlezv2c53er87lbnc/XGvGErqH1 73gBfecBHVrOTpwKwBFs/plt8wIAAACwA+JUAAAAAIAQcSoAAAAAQIg4FQAAAAAgRJwKcD2jpwGN rDhxjtFDT1GaeEJLVpuSv2+xWebsP8rE/+1KqP9z/XeRPnbZcSr2WMpafVv5we0Qr4dd1VjkEUmN xTqfvLRCYebd1zpbTmyz81eHvgoDwFrEqQCsxYc0ACZyKZmFagSACcSpAAAAAAAh4lQAAAAAgBBx KqO4PwiuZtG/+s5Z8HZ1nplSmOnzQnZuc+KSl5qn9ZocnbjENL6DNrJCncf3MqIw7VXaNTPlPQ5d tz5ravAk3FhsV9eRPm8LGZz8dNCbPUTNAMdVzY3efhHOQpwKAKP4OAoAAHA94lQAAAAAgBBxKgAA AABAiDgVAAAAACBEnAoAAAAAECJOZQgP44PTW/rxSuX2xz2jeYeGlrDzudjlixNPsJHV13nyeKQY Qxfoq7dxe69WTG9hRDmDBdihfZZqQ/P+sdQ3VW258WLW8xzkcbvo+23nxud68nJwxeVO7H1bXvNS Et/XEtfBEe/063WASy2wf4N6+HAK4lQAAIC5jcs3AY7LSYzLEKcCAAAAAISIUwEAAAAAQsSpAAAA AAAhv7YuAAA79vXqeLpI54tXMO9sUME6TD8lpvxnWbC+DZ74YNXffudvg4dsiSqK7/3tdrJNZyKb 6420Nzv7BteppfSOJhYjflpo72Xow9MaTSv9MKvdelvb1QLtK1fkSI1b6+3W6qVa1PQHXpkGEXjr 7YniQJcVCDM6FYAhfLIC4OhcywCACcSpAAAAAAAh4lQAAAAAgBBxKgAAAABAiDgV4MKCD+KIzzE3 dMnTz16356n3/+T/+y9b5UE04zbbuVb7xeqNTDdxO6sd9D23rj5DyzzLe2y38M5dpBfL/tvGqoXT JYz/WUUeJdd+ltT0+kk/7C5RsKH2cLYf9NyqFQzaS33hiY/DAtjKEbsu0EOcCsBYEz+V+VAHAADA 0YhTAQAAAABCxKkAAAAAACHiVAAAAACAEHEqAAAAAECIOBWAHus/KuqID6f6ev1T7BkLXz6we8pj u+d6zH1fSYLbj5ehc8lx+20/fj2xl8YGIxt/u9O3+oqRfqZ8pBjB3Y1YLFK2oZWZ2NqgwkxpiqOP eHyV+GGdReMQ7OQZyu3TY/VK35lz88tBdW5vvNj4IbH621cGFQbgoHZyJYK5iVMB6OLDGwBTjMgc 9yxR2savjvW+AIDhxKkAAAAAACHiVAAAAACAEHEqAAAAAECIOBUAAAAAIEScCsB/dT7OeMRG3r6S fn3n9lDs+PPr+1YcutjsDwof9Cz4vvfb+avEMlNKGNz7aJFDGa+xEburv5e+3yZ+1beX0ZX/9pW3 v+1bJV6ksvyDqn1QyYN/aNPfyKLqp8Ty586TZOJXKxRpxIpTFptegPiVtLGMR2MBwMLEqQAsz2c5 gIu77IVgrjd+2QoEgP0RpwIAAAAAhIhTAQAAAABCxKkAAAAAACHiVAAAAACAEHEqAAAAAECIOJUY zxIF6r5eTguL+JPPv2RkxfaLie0Hf1X+XP1/dIEnKnc9ce/x+mnUQL0S2qWaRbWdyDbrCw/aeN8r weY0bl9vlx/UbtMLdB6p9Nbarf2tEe+xb62t/qAq8UvAzi8Wb4u323faubud1zZwNZtfrWAx4lQA AIDjEJsCwKbEqQAAAAAAIeJUAAAAAIAQcSoAAAAAQIg4FQAAAAAgRJzKG3nlb/a//8K2Lj6wvK9X 85kY1T/LHzwxYyuzPCo9vbX2k+LLjcQfif52g28t8Rz5Kb9NLBB8Ev3bCmyvmK63xAPrI7UXfzuJ BSJHdujyEy39uOGJ25+yeqKlRVrIFH2Xg0FrbWJcGRJXwHUKALBDTmhcgDiVN16V39nrd/bPD2Fb Fx9Y2Nveku4UAABchM4/1yBOBQAAAAAIEacCAAAAAISIUwEAAAAAQsSpAAAAAAAh4lQAAAAAgJBf WxcAAM7i65X9yTtezLKO169jh+89UaRBpY0v/Cef+qDbxBYaxegrVfl6+7fB1YP69pJefq7FIstP PxbxfZ1VowLb9emxzgkqB7iUzu4xHJ/RqQAAwCjCQQDgesSpAAAAAAAh4lQAAAAAgBBxKgAAAABA iDgVAAAAACBEnAoAAAAAECJOBYB1jX4Q9jpP0P6TD14+vsrQjW+rUdrZC19uML6XQVXdWL694sS3 E1y9vtjoPc6ykSl2/vD65Yr3dss7r5m46e909qo4Td0CpB2rcwj/EqcCwI75RA3swZXPReu/9yvX NgAcgTgVAAAAACBEnAoAAAAAECJOBQAAAAAIEacCAAAAAISIUwEAAAAAQsSpAAAAAAAh4lTCvl7Z 1+ufHwDeuvK5YtDZct7FNvQn37oEu6yl0dWyh/pcSPqtRd54tUznwm+3MKJud9i0NqEe6iK1ocaA a+o7+524e8PFiFMBYD5Ds9EVPmkf7sP84QoMaTtv0jsvHgDA/ohTAQAAAABCxKkAAAAAACHiVAAA AACAEHEqAAAAAECIOBUAAAAAIEScCgAAAAAQIk4FYCZfr61LsJ36e+/7efYdzbWF8pWFDt+arWK1 fY3b0Z987nLQJVHPQw9B40DP0sDKjUxsDIs29bcbTyxw5asAAA19FwU9Ik5BnArAHHyKhtPzZ76o HX77AgBAF3EqAAAAAECIOBUAAAAAIEScCgAAAAAQIk4FAAAAAAgRpwIAAAAAhIhTAQAAAABCxKkA AAAAACHiVABYwNfr/YvVPzsXjiyQ/tWMq0zXVyFTCvN23U3e6TVtW9Wz/xWMfjtDV5xYb51/QbP8 TXWerBY9yv5aAYDjEKcCwC6lc431Lb1fYcqaBtW2QzOL/Vfj/ksIwBG5vnBG4lQAAAAAgBBxKgAA AABAiDgVAAAAACBEnAoAAAAAECJOBQAAAAAIEacCAAAAAISIUwEAAAAAQsSpAAAAAAAh4lQAWNHX 681v0wskNtVeMbGpakf1/0f2MnRHo5dMLJ8u+dBd1FeccWtzWaIAU7Y5qIlO2V3i0C+302zUG4xs YZ2GVN9L3899y0deH7fYQqsf1DXfNXBZTnqclzgVAPZheo/zCn3WnbzHlYuxk3fNXPZwQPdQBgCA YxKnAgAAAACEiFMBAAAAAELEqQAAAAAAIeJUAAAAAIAQcSoAAAAAQIg4FQAAAAAgRJwKAAAAABAi TgUAAAAACBGnAsAWvl7jfxtfvny9+n9jsfheOpdM7zSxWFmSQe9x6PKdRapvofp5ymZH7LevGMFN JTab3mZkRxOrYvTq9WMx6E1NVN/dQn8LU4rUt4u+AqRbRWM7Q//6AGBef/KtSwCTiFMBgKQThynL hYz7rLR9lmo5V3u/baO/QZmyCgDA2YlTAQAAAABCxKkAAAAAACHiVAAAAACAEHEqAAAAAECIOBUA AAAAIEScCgAAAAAQIk4FuuV5vnUR2AuNgUr+d+sSsCfaAxWNgYpuA3XaAxVXCs5EnAoAAAAAECJO BQAAAAAIEacCwPK+XtnXa+YNpn817+7eiu+uc8mJpW2vXr0yYstv67ZzF31rRQ5Het30i+l/jjau wPPuZfTWOg9TZI+JhlT/Z+efc3vJvmWCh7X9LuovjjilpP8oVj5jAECWZX/y5j//mB2CYxCnAsDR BPM+5jV75rtbBypq26EL32mFd3S+SgMAWJI4FQAAAAAgRJwKAAAAABAiTgUAAAAACBGnAgAAAACE iFMBAAAAAELEqQAAAAAAIeJUAAAAAIAQcSrbyPPcjna+o9Wcr+rOt6PVnK/qzrej1eR/T7iv8+1o Nef7U9IYRjthYzjdjlZzvqpb8xhpD3a0/o5Wc753xA6JUwEAAAAAQsSpALADX6/un6dvbdBa1Yr1 n+O76HsX5c99G0y/9+B7ebu70VuO7Lf9/8iKjeXfFrhv76PFj0t6X43Kf7vk6PY54pW3u2sfiPjq c9X/iEM/lzX3BQClP/n//l/+UP4HxyFOBQD+a8M8l9JBq+JSOeDmBQAAYCPiVAAAAACAEHEqAAAA AECIOBUAAAAAIEScCgAAAAAQIk4FAAAAAAgRpwIAAAAAhIhTAQAAAABCxKkAAAAAACHiVAAAAACA kPz1em1dBvYrz/OtiwAAAACwKnEZCeJUAAAAAIAQN/sDAAAAAISIUwEAAAAAQsSpAAAAAAAh4lQA AAAAgBBxKgAAAABAiDgVAAAAACBEnAoAAAAAECJOBQAAAAAIEafCGRRFked5nufB5e/3e15zv9+L olhuxaIoRu+RiHYNxytZYziZzhp+Pp+RdTWGK3g+n8HrhfZwGlUnIS1R2xrD+YyuZI3hHKprQdD9 fu/cjvZwPrqREPUCju92uwX/or+/v/vOBrfbbYkVH49H34qPx2PY+6RLdfSHHh2N4XzSjeH7+7tv RY3hIurHK7iY9nACieqt6zxFaAynlLhYJCpZYziT4GkhcaS0h/NJtwrdSGgQp8LhBT8ev1pXrNvt 1uhP9123Rq/YuNS1V3TBm6h9IB6PR+ToaAzn067ediV3rqgxXMfbxvDSHs4o/UVLokloDKfUPhaR StYYTmZinKo9nE9nDTcqOfKtm8bAdYhT4dga16H0wn0Xp/pGOi+TfSvWL2bzrkhE/cC1Oxz1Sm73 KjSGk0lXY/osoTFcRCRbf2kPZ1Qd+qEragznk6jJ+q/aK2oM19TXJLSHk6kfuPanhnr/ob2uxsBl iVPheL6/v9sjEPuucPW1Eosl+tDp7nX120Sc1/nVYlX+vi8eeettHfb1fjSG83nbfexbQGO4iPZA pM7FtIdTSh/0PhrDKfVdC0pVJTfyFI3hmqqjoOdwem/rsO/UoTFwZeJUOJ7E7TmJtfq6yJW+y2Tf 6+0Fght8uyJBb2u4bxmN4XzeVmDfQdcYrqD6tJMeYPLSHk5qXB1qDOeTjiFe/z1X1F/XGC6orzG8 tIczelvDupHQppHB8YyLU98u03c5HLdi+rvKxpbdjjHOoONWZ51/AAAOL0lEQVRer2SN4WQSn3kq 8x7T0StqDJuo13m6/rWH84mcHzppDOdT1XyiAr//VX9RY7igxCHQHs7nbQVWHz91I6HyfxlwNM/n s/5n/P3f6VM7FUUR2Wx74ernzrkFSvf7fdyK1YU5UjwagpXWrn+N4ZRut9vtdqvqP6G+jMZwBdWB eHux0B7OLXJ+qGgMp/Tz81P+kGgM939Vr2gMF1Qd0PaFQ3s4papu+yqw83WNgYsTp8IlRK49laq3 ncWuQ+lPaOkue3wvNNzv92oISWKx9mcnjeF87vd7URRFUVR91rbOT9Eaw+kVRVEeuEjarj2cUlVv ZU0+n8/7/Z7neZ7n9/u976ShMVDRGC7o8/Mz67lwaA+nVFVgeegbqr5EVotHM42ByxOnwrVErj2j Vxx6mWSi9hCShkS4lmkMl1EURZ7n5c99/V2N4aw+Pj7KHwbVvPZwJlUlP5/PPM8/Pz+rQ/Dz8/P5 +ZnneeJAaAyn0Q4+yiZRefuNi8ZwEcE0Sns4k/pHhsZF4fl8Vn2JvhnnNAauSZwKpEy/aL3tnWf/ vUwyl6Ioqm+YIzNCRDY4cQsaw2qKoiij9jzPq07w7XabqxuqMRxCVcmznAEStIdDSFTgx8eHk8Pp NW6YLbP1+gI/Pz95nqe/iB29x3E0hvXV72mYfcsTt6A9LOpVm6704+Oj+qKlOlE8Ho+5zg8aA+cg ToVLWOeiVRe5gA3dJnH1b5Ib92ppDFdQfhyq13xnlqoxnNjz+Sxr+/F4BKtUezileiU3ngRSz9mr S0ZJYzixn5+f+uFupGafn5+NetYYLqVzpss67eHEEmnp7XZr/1Zj4OLEqQCn0hhyMuOARA6tHHak MVxENTi98/MP1/T9/d1oDPf7/VV7CLKPoFdTPva6KIoyXq9y1Z+fHxeLa6qGpvbd082J1YdilOrf tehGQps4FeAkyvu76z2hx+Oh33NNz+czMgCNsxo3ZSqnVJ0K+tLS6hThvshLaTeJoijqt/puUCa2 Vh1338NdzfP5rN/UX1412t+1zDgzDJyAOBUuYfqQk6HXzsiMS67HMyqD1OrD8O12e71enb1hjeFq EgPQNIZTGj1lqvZwTZ2zwWgM59Z3cuisYY3hItoPK+ukPZxS/XELnTf11x9hV72uMXBx4lS4lqEX mMhlMr1Nl7QV5HleD1K/v78j1a4xXEp6AJrGcCbVIS6K4tlSLVa9Mn1SXe3hNDSGExv6XZrGcDXV BSI4NFV7OI3qiDcet1BXVX7nZCAaA9ckToVLWOeiVf/CcNAeZ3946HWUM6VW/yyD1HTlawzX1HkU NIZz++zS/m31OUp7uKx23WoMJ5auveq3g4YqawwnUH0Vpxt5NYP+2Os0Bi5OnAqXUF17EjOjdV57 Bq3YucfEZXL0xZtKNctVeXd/pCY1hvPJ/xX8rr5d2xoDmfZwYe0YRWM4n8ihGb2ixnB01fdqbx9C pT2cWLr2Et+1aAxc1As4uPoEWInF3i5TXeSqCciHrlg+Ija+YrVAY0WCqi5vmaXGaQwn01ftDZ1H QWM4n++kevWW6utqDyfj5EDd2xp+9VSyxnB6g+pTeziZvuPV4OQADeJUOLxgnPr2Stm3kdErpi9m wWKTMLoCNYaTiQTrfZWsMVxNunq1h5NxcqDu7aHRGC5rUH1qDydTH5KcWMzJARo0Mji84GUjvVji E1d6xepaOHrF9Beh9Kmqd+jQ1JfGcEbpzmV9gUYlawxXk75eaA/n0/e3/3YBjeF8GuPT2wtoDNc0 tEupPZxP399+e4HG0dEYuDJxKhxe/Fu4+pw19dfr30l2dq/7Lmlvv8zsu/T2lYS4eh1GNI6sxnAy 9fpv9CAb86C119UYLuVtDWsPJ1OvRicH+tpDvTOpMVzNiARKeziZ+hngdrvVj52TA/TRzuDwBt3U kP1XI5JL9KLSKybmpmmsFV+RtIlx6ktjOJ1xzaBzXY3hxKpKjiyjPZxDFhBcV2M4gbeNwZXiasZV qfZwMpFPFk4OUCdOhcMbOkdM38Xy7YVn6JW1XbyheyShr1YH1bbGcDKJB/Le3t3BpzFcRFXP6cW0 h5NJfE52crigvmOqMVxTVatDV9QeTiZRw04O0Ja/hn8mB46uKIrn81n9836/1/+5worP5/N+v0dW ZGkaw/mU1VsURfnP+7/erqgxUKc9nM/z+azODNkWx1Rj2I/iX+U/XSkYR3s4n/ahcXKATuJUAAAA AICQ/9u6AAAAAAAAxyBOBQAAAAAIEacCAAAAAISIUwEAAAAAQsSpAAAAAAAh4lQAAAAAgBBxKgAA ALBfRVHkA93v961LfRhljT2fz6V39Hw+y32ttqN4M6i3sSWLxkmIUwEAAIBT+fn52boIB1MUxQl2 UapS1J+fn+BOVysb5yBOBQAAAOAk6oNSgznp5+dn+cPj8VigRJyNOBUAAAA4hlfY1iU9mJNNj1Cl olVOmlCPXFeY9IATEKcCAAAAXFSZPp8sRqy/nbcDVKsFbrfbUgXiXMSpAAAAAJzT26S4GsF6siG6 LOfX1gUAAAAA2EA5LHFQiFaNZBwavb3d14jCrG8PhQwegsfjUeak6eeSudOfEYxOBQAAAM7s+Xzm eZ7nefnPoijKf358fHx8fJQ/p28JL4rifr9Xq1Rr9QVwjd/e7/dyrfbyVdnahSn3WBW72mz9lbZq reBTmMqFG9FkpMbmDR+rPfaFpI2KKouRSFSD9/u7058RxKkAAADAVTyfz4+Pj/brnVlnfZXOQY6f n59vB5zmed43QPJ+v3c+K+nj46MoivZaVeSXyAertWYZQ1oURV+NfX5+zpWo1uuh863led5ZUT8/ P4nguKquRDmrzRqaSpw4FQAAALiE5/NZxmePx+P7+/v7+7t6BHyWZZ+fn+1grlqlVK74eDyqqO7n 5ycRXKZ/VUWft9vt8XjUN9uZYFaRXyL5rTbYt99BiqIYWmND1evh9Xq1F6iPxm1XVPZv+txesaqN vji7vtbOp1lgX14AAAAAe/X9/T0xxKgngFmWfX9/NxaofvV4PPp23fhVY7ONbTayl/Ye01tORDfp qkjssU+5/O1263trg2osoQpAO1/se0fpBapfNcrfXqCzQqq32bc6dDI6FQAAADiGPCZx4/b393d7 HGIVbjYGOdYHe3ZOe1rlcYk9vl6v9h6r5R+PR3vdV9cgzaoknUVtmHGs5aAaG+TtuNSsNrC0c4Hq xb7xp+n7/d3pzzjiVAAAAOAqBuWMVUjXFxq+vZ28McyzveW+IK/vbv3E/f71iLZz3XE6a2x6XBvJ UiPvKJ1ovz1AVWFSZYX/+rV1AQAAAABCglOC9qVjfat3Lh985vvtdiujuqIoEqNQh2657wFQ1S7a +eASYy0Xet59PUutz3vQUFVUegra8o13Rt71FRsHaPZ5ZrkOcSoAAABwDBMffDRoEGJ9X5H9dsap 6S2Pe4ZVZ4A7/ZFQQ4sxZZv1LPjj4+Ptnf5Z4A0mBgiXeevz+axvxJ3+jCZOBQAAAC5hXDj48/PT OVB0tInRZzVwtZ4PVj/Me6f/EsrcswqFsyx7Pp/pTHNK/VfDV/vyVnf6M5S5UwEAAAAOo/N+/2ON tbzdbkVRVLf5V4VfQucN/u70ZwpxKgAAAECvx+PxCojnmNOHQ1YhYDkoNTjN606UWWqWZff7vSpw uk4i9d83Y0BWG7FbVdSx0mf2RpwKAAAA0GuhaUmnbLkxyrI96HLPOiel/fn5Wa7w1Zbb9/u7058R xKkAAAAATZ331LcVRfF26s8RW04nrY0tVNs5YjhYDR1t3/LfGITbp6z/9DLVpuoHa//zzLJP4lQA AACApno0mYjqPj4+Pj8/B83+Gdny24cvtW+TP8Sd/m31JLoRB1f/TNRG+aSpt/Vfberz87Oq8yOm z+yBOBUAAACgQzV6sS/Oq/K4oeMc01uOjHVt38B+iDv9O1XPpPr5+anny/V31PnuiqIIjsytr37o wbzsgTgVAAAAOIY8bJZssb6RPM8bk37e7/fRUWZiy8/nMzLWtR0FHjccrD+TqpEv16cCuN/vjYqq Fo7E2Y3Ru+70ZzRxKgAAAEC3auBklmUfHx9VXPvx8VFlqfVlpm+5zFKH5oNHDwcTg1Krt/nz89Ou qCzLbrfboPG8nf+EOHEqAAAAQLf7/f56vfqmJb3dbt/f3+OGhd7v974c9vF4DM0HTxAO9j2TqiiK RFj8eDzSD6GqHHf0LnuTv16vrcsAAAAAsGvFv8p/3v81y5arMPR+v1c/53le/tAX3RRFUd7tfrvd gpHioT2fz/rbrNcVrEmcCgAAALAvkai0mrx19AhZYIRfWxcAAAAA4FoiI0/LHxI5qSfUwybMnQoA AACwqmoy1s7b1YuiqOYP7bufvXq9b15XYCFu9gcAAABYVXUvf/bvg+mrEabP57P+zPrGnf5liloU RTU01Z3+sDJxKgAAAMDa6rFpp85ZU6tZAhLLAItysz8AAADA2p7P5/f3d9+t+o/H421OKkuFTRid CgAAALClMhUtiuJ+v7+9c79c2A3+sBVxKgAAAABAiJv9AQAAAABCxKkAAAAAACHiVAAAAACAEHEq AAAAAECIOBUAAAAAIEScCgAAAAAQIk4FAAAAAAgRpwIAAAAAhIhTAQAAAABCxKkAAAAAACHiVAAA AACAEHEqAAAAAECIOBUAAAAAIEScCgAAAAAQIk4FAAAAAAgRpwIAAAAAhIhTAQAAAABCxKkAAAAA ACHiVAAAAACAEHEqAAAAAECIOBUAAAAAIEScCgAAAAAQIk4FAAAAAAgRpwIAAAAAhIhTAQAAAABC xKkAAAAAACHiVAAAAACAEHEqAAAAAEDI/wNZfRNi9Tp1WQAAAABJRU5ErkJggg== "
       id="image1002"
       inkscape:export-filename="/home/user/Nextcloud/Documents/Uni/TesiMagistrale/progettoTesi/presentazione/Images/14NSum_complete.png"
       inkscape:export-xdpi="96"
       inkscape:export-ydpi="96" />
    <text
       xml:space="preserve"
       style="font-style:normal;font-weight:normal;font-size:30.0178px;line-height:1.25;font-family:sans-serif;fill:#000000;fill-opacity:1;stroke:none;stroke-width:0.672602"
       x="1083.3774"
       y="427.80466"
       id="text40355"
       transform="scale(0.93141844,1.0736313)"><tspan
         sodipodi:role="line"
         id="tspan40353"
         x="1083.3774"
         y="427.80466"
         style="font-size:30.0178px;stroke-width:0.672602">5180 keV</tspan></text>
    <text
       xml:space="preserve"
       style="font-style:normal;font-weight:normal;font-size:29.3333px;line-height:1.25;font-family:sans-serif;fill:#ff6600;fill-opacity:1;stroke:#000000;stroke-width:0.2;stroke-miterlimit:4;stroke-dasharray:none;stroke-opacity:1"
       x="393.35016"
       y="511.4631"
       id="text159259-2"><tspan
         sodipodi:role="line"
         id="tspan159257-9"
         x="393.35016"
         y="511.4631"
         style="font-size:29.3333px;fill:#ff6600;fill-opacity:1;stroke:#000000;stroke-width:0.2;stroke-miterlimit:4;stroke-dasharray:none;stroke-opacity:1">1384 keV</tspan></text>
    <text
       xml:space="preserve"
       style="font-style:normal;font-weight:normal;font-size:29.3333px;line-height:1.25;font-family:sans-serif;fill:#ff6600;fill-opacity:1;stroke:#000000;stroke-width:0.2;stroke-miterlimit:4;stroke-dasharray:none;stroke-opacity:1"
       x="540.62512"
       y="661.48676"
       id="text159259-2-3"><tspan
         sodipodi:role="line"
         x="540.62512"
         y="661.48676"
         style="font-size:29.3333px;fill:#ff6600;fill-opacity:1;stroke:#000000;stroke-width:0.2;stroke-miterlimit:4;stroke-dasharray:none;stroke-opacity:1"
         id="tspan6239">2376 keV</tspan></text>
    <text
       xml:space="preserve"
       style="font-style:normal;font-weight:normal;font-size:28.8387px;line-height:1.25;font-family:sans-serif;fill:#ff6600;fill-opacity:1;stroke:#000000;stroke-width:0.180242;stroke-miterlimit:4;stroke-dasharray:none;stroke-opacity:1"
       x="290.02231"
       y="374.27411"
       id="text159259-1"
       transform="scale(0.95898985,1.0427639)"><tspan
         sodipodi:role="line"
         id="tspan159257-2"
         x="290.02231"
         y="374.27411"
         style="font-size:28.8387px;fill:#ff6600;fill-opacity:1;stroke:#000000;stroke-width:0.180242;stroke-miterlimit:4;stroke-dasharray:none;stroke-opacity:1">764 keV</tspan></text>
    <text
       xml:space="preserve"
       style="font-style:normal;font-weight:normal;font-size:26.0703px;line-height:1.25;font-family:sans-serif;fill:#ff6600;fill-opacity:1;stroke:#000000;stroke-width:0.162939;stroke-miterlimit:4;stroke-dasharray:none;stroke-opacity:1"
       x="242.70923"
       y="326.96341"
       id="text159259-7"
       transform="scale(0.92924997,1.0761367)"><tspan
         sodipodi:role="line"
         x="242.70923"
         y="326.96341"
         style="font-size:26.0703px;fill:#ff6600;fill-opacity:1;stroke:#000000;stroke-width:0.162939;stroke-miterlimit:4;stroke-dasharray:none;stroke-opacity:1"
         id="tspan230631">511 keV</tspan></text>
    <text
       xml:space="preserve"
       style="font-style:normal;font-weight:normal;font-size:32px;line-height:1.25;font-family:sans-serif;fill:#ff6600;fill-opacity:1;stroke:#000000;stroke-width:0.2;stroke-miterlimit:4;stroke-dasharray:none;stroke-opacity:1"
       x="299.62732"
       y="220.89772"
       id="text159259"><tspan
         sodipodi:role="line"
         id="tspan159257"
         x="299.62732"
         y="220.89772"
         style="font-size:32px;fill:#ff6600;fill-opacity:1;stroke:#000000;stroke-width:0.2;stroke-miterlimit:4;stroke-dasharray:none;stroke-opacity:1">1022 keV</tspan></text>
    <path
       id="path96566"
       style="fill:#ff6600;fill-opacity:1;stroke:#000000;stroke-width:2.3878;stroke-linecap:butt;stroke-miterlimit:4.8;stroke-dasharray:none;stroke-dashoffset:0;stroke-opacity:1"
       d="m 1229.3001,185.31921 -65.3155,111.1392 63.5093,112.18004 128.8273,1.04294 65.3155,-111.1371 -63.5093,-112.18215 z m 82.7432,75.11678 20.2062,34.12407 -19.947,34.26945 -40.1557,0.14748 -20.2064,-34.12406 19.9492,-34.27156 z" />
    <text
       xml:space="preserve"
       style="font-style:normal;font-weight:normal;font-size:26.735px;line-height:1.25;font-family:sans-serif;fill:#ff6600;fill-opacity:1;stroke:#000000;stroke-width:0.167094;stroke-miterlimit:4;stroke-dasharray:none;stroke-opacity:1"
       x="1383.4196"
       y="425.41678"
       id="text122346"
       transform="scale(1.0388148,0.96263548)"><tspan
         sodipodi:role="line"
         id="tspan122344"
         x="1383.4196"
         y="425.41678"
         style="font-size:26.735px;fill:#ff6600;fill-opacity:1;stroke:#000000;stroke-width:0.167094;stroke-miterlimit:4;stroke-dasharray:none;stroke-opacity:1">7556 keV</tspan></text>
    <text
       xml:space="preserve"
       style="font-style:normal;font-weight:normal;font-size:33.4188px;line-height:1.25;font-family:sans-serif;fill:#ff6600;fill-opacity:1;stroke:#000000;stroke-width:0.167094;stroke-miterlimit:4;stroke-dasharray:none;stroke-opacity:1"
       x="1366.2659"
       y="391.10458"
       id="text141151"
       transform="scale(1.0388148,0.96263548)"><tspan
         sodipodi:role="line"
         id="tspan141149"
         x="1366.2659"
         y="391.10458"
         style="stroke-width:0.167094">Sum peak</tspan></text>
    <path
       style="fill:none;stroke:#000000;stroke-width:0.904369px;stroke-linecap:butt;stroke-linejoin:miter;stroke-opacity:1"
       d="m 1227.4939,408.63845 44.6529,-79.66146"
       id="path117188" />
    <path
       style="fill:none;stroke:#000000;stroke-width:0.904369px;stroke-linecap:butt;stroke-linejoin:miter;stroke-opacity:1"
       d="m 1312.3025,328.82951 44.0187,80.85188"
       id="path117190" />
    <path
       style="fill:none;stroke:#000000;stroke-width:0.904369px;stroke-linecap:butt;stroke-linejoin:miter;stroke-opacity:1"
       d="m 1332.2495,294.56006 89.3873,3.98423"
       id="path117192" />
    <path
       style="fill:none;stroke:#000000;stroke-width:0.904369px;stroke-linecap:butt;stroke-linejoin:miter;stroke-opacity:1"
       d="m 1312.0432,260.43599 46.0842,-74.07385"
       id="path117194" />
    <path
       style="fill:none;stroke:#000000;stroke-width:0.904369px;stroke-linecap:butt;stroke-linejoin:miter;stroke-opacity:1"
       d="m 1271.8896,260.58137 -42.5895,-75.26216"
       id="path117196" />
    <path
       style="fill:none;stroke:#000000;stroke-width:0.904369px;stroke-linecap:butt;stroke-linejoin:miter;stroke-opacity:1"
       d="m 1251.9404,294.85293 -87.9558,1.60548"
       id="path117198" />
    <rect
       style="fill:#ffffff;stroke-width:1.754"
       id="rect2090752"
       width="732.8006"
       height="58.468487"
       x="522.64795"
       y="22.551718" />
    <text
       xml:space="preserve"
       style="font-style:normal;font-weight:normal;font-size:48px;line-height:1.25;font-family:sans-serif;fill:#000000;fill-opacity:1;stroke:none"
       x="587.39648"
       y="65.554955"
       id="text2047176"><tspan
         sodipodi:role="line"
         id="tspan2047174"
         x="587.39648"
         y="65.554955"
         style="font-size:48px"><tspan
   style="font-size:26.6667px;baseline-shift:super"
   id="tspan2049092">14</tspan>N(p, )<tspan
   style="font-size:26.6667px;baseline-shift:super"
   id="tspan2050834">15</tspan>O energy spectrum</tspan></text>
    <text
       xml:space="preserve"
       style="font-style:normal;font-weight:normal;font-size:48px;line-height:1.25;font-family:sans-serif;fill:#000000;fill-opacity:1;stroke:none"
       x="702.39539"
       y="60.413456"
       id="text2060562"><tspan
         sodipodi:role="line"
         id="tspan2060560"
         x="702.39539"
         y="60.413456"
         style="font-style:normal;font-variant:normal;font-weight:normal;font-stretch:normal;font-size:48px;font-family:'Libertinus Math';-inkscape-font-specification:'Libertinus Math'">γ</tspan></text>
    <path
       style="fill:none;stroke:#000000;stroke-width:1.58065;stroke-linecap:butt;stroke-linejoin:miter;stroke-miterlimit:4;stroke-dasharray:none;stroke-opacity:1"
       d="m 793.57935,553.14009 204.218,-1.48431"
       id="path2358-7-3" />
    <path
       style="fill:none;stroke:#000000;stroke-width:1.1663;stroke-linecap:butt;stroke-linejoin:miter;stroke-miterlimit:4;stroke-dasharray:none;stroke-opacity:1"
       d="m 554.44661,272.10041 141.57278,-1.4843"
       id="path2358-5" />
    <path
       style="fill:none;stroke:#000000;stroke-width:1.58065;stroke-linecap:butt;stroke-linejoin:miter;stroke-miterlimit:4;stroke-dasharray:none;stroke-opacity:1"
       d="m 797.89291,213.56351 204.21799,-1.48432"
       id="path2358" />
    <path
       style="fill:none;stroke:#000000;stroke-width:1.58065;stroke-linecap:butt;stroke-linejoin:miter;stroke-miterlimit:4;stroke-dasharray:none;stroke-opacity:1"
       d="m 795.89217,304.18046 204.21803,-1.48433"
       id="path2358-3" />
    <path
       style="fill:none;stroke:#000000;stroke-width:1.58065;stroke-linecap:butt;stroke-linejoin:miter;stroke-miterlimit:4;stroke-dasharray:none;stroke-opacity:1"
       d="M 795.87893,383.47031 1000.0969,381.986"
       id="path2358-6" />
    <path
       style="fill:none;stroke:#000000;stroke-width:1.58065;stroke-linecap:butt;stroke-linejoin:miter;stroke-miterlimit:4;stroke-dasharray:none;stroke-opacity:1"
       d="m 794.54286,451.38525 204.218,-1.48432"
       id="path2358-7" />
    <path
       style="fill:none;stroke:#000000;stroke-width:1.58065;stroke-linecap:butt;stroke-linejoin:miter;stroke-miterlimit:4;stroke-dasharray:9.48398, 1.58065;stroke-dashoffset:0;stroke-opacity:1;marker-end:url(#marker3058-9)"
       d="m 696.01939,270.61611 101.87352,-57.0526"
       id="path3121" />
    <text
       xml:space="preserve"
       style="font-style:normal;font-weight:normal;font-size:35.8318px;line-height:1.25;font-family:sans-serif;fill:#000000;fill-opacity:1;stroke:none;stroke-width:0.895796"
       x="591.75415"
       y="291.11075"
       id="text10299"
       transform="scale(0.95254469,1.0498195)"><tspan
         sodipodi:role="line"
         id="tspan10297"
         x="591.75415"
         y="291.11075"
         style="stroke-width:0.895796"><tspan
   style="font-size:23.2907px;baseline-shift:super;stroke-width:0.895796"
   id="tspan2076918">14</tspan>N+p</tspan></text>
    <text
       xml:space="preserve"
       style="font-style:normal;font-weight:normal;font-size:30.0178px;line-height:1.25;font-family:sans-serif;fill:#000000;fill-opacity:1;stroke:none;stroke-width:0.794428"
       x="1197.4135"
       y="189.71786"
       id="text17557"
       transform="scale(0.84231607,1.1872028)"><tspan
         sodipodi:role="line"
         x="1197.4135"
         y="189.71786"
         id="tspan19533"
         style="font-size:30.0178px;stroke-width:0.794428">7556 keV</tspan></text>
    <text
       xml:space="preserve"
       style="font-style:normal;font-weight:normal;font-size:30.0178px;line-height:1.25;font-family:sans-serif;fill:#000000;fill-opacity:1;stroke:none;stroke-width:0.956525"
       x="1147.4443"
       y="276.64307"
       id="text34353"
       transform="scale(0.8795258,1.1369763)"><tspan
         sodipodi:role="line"
         id="tspan34351"
         x="1147.4443"
         y="276.64307"
         style="font-size:30.0178px;stroke-width:0.956525">6792 keV</tspan></text>
    <text
       xml:space="preserve"
       style="font-style:normal;font-weight:normal;font-size:30.0178px;line-height:1.25;font-family:sans-serif;fill:#000000;fill-opacity:1;stroke:none;stroke-width:0.845939"
       x="1105.2758"
       y="359.45615"
       id="text37843"
       transform="scale(0.91249726,1.0958937)"><tspan
         sodipodi:role="line"
         id="tspan37841"
         x="1105.2758"
         y="359.45615"
         style="font-size:30.0178px;stroke-width:0.845939">6172 keV</tspan></text>
    <text
       xml:space="preserve"
       style="font-style:normal;font-weight:normal;font-size:30.0178px;line-height:1.25;font-family:sans-serif;fill:#000000;fill-opacity:1;stroke:none;stroke-width:4.21846;stroke-miterlimit:4;stroke-dasharray:none"
       x="912.6098"
       y="620.14984"
       id="text44385"
       transform="scale(1.1061353,0.90404853)"><tspan
         sodipodi:role="line"
         id="tspan44383"
         x="912.6098"
         y="620.14984"
         style="font-size:30.0178px;stroke-width:4.21846;stroke-miterlimit:4;stroke-dasharray:none">0</tspan></text>
    <path
       style="fill:none;stroke:#de0000;stroke-width:1.57593;stroke-linecap:butt;stroke-linejoin:miter;stroke-miterlimit:4;stroke-dasharray:none;stroke-opacity:1;marker-end:url(#marker3058-9)"
       d="m 845.42645,210.86891 -0.70774,93.15744"
       id="path68012" />
    <path
       style="fill:none;stroke:#de0000;stroke-width:2.36389;stroke-linecap:butt;stroke-linejoin:miter;stroke-miterlimit:4;stroke-dasharray:none;stroke-opacity:1;marker-end:url(#marker3058-9)"
       d="m 885.64693,213.15786 1.03166,174.05565"
       id="path68014" />
    <path
       style="fill:none;stroke:#de0000;stroke-width:1.57593;stroke-linecap:butt;stroke-linejoin:miter;stroke-miterlimit:4;stroke-dasharray:none;stroke-opacity:1;marker-end:url(#marker3058-9)"
       d="m 936.26999,211.98002 -0.40135,239.02386"
       id="path68016" />
    <path
       style="fill:none;stroke:#de0000;stroke-width:0.787965;stroke-linecap:butt;stroke-linejoin:miter;stroke-miterlimit:4;stroke-dasharray:none;stroke-opacity:1;marker-end:url(#marker3058-9)"
       d="m 970.18159,215.93771 -1.45542,335.65343"
       id="path68018" />
    <path
       style="fill:none;stroke:#00c900;stroke-width:1.12567px;stroke-linecap:butt;stroke-linejoin:miter;stroke-opacity:1;marker-end:url(#marker3058-9)"
       d="m 844.71871,304.02635 0.53673,248.17811"
       id="path68187" />
    <path
       style="fill:none;stroke:#00c900;stroke-width:1.12567px;stroke-linecap:butt;stroke-linejoin:miter;stroke-opacity:1;marker-end:url(#marker3058-9)"
       d="m 886.67859,387.21351 0.77566,164.91216"
       id="path68189" />
    <path
       style="fill:none;stroke:#00c900;stroke-width:1.12567px;stroke-linecap:butt;stroke-linejoin:miter;stroke-opacity:1;marker-end:url(#marker3058-9)"
       d="m 935.86864,451.00388 -1.06777,99.29906"
       id="path68191" />
    <text
       xml:space="preserve"
       style="font-style:normal;font-weight:normal;font-size:31.6954px;line-height:1.25;font-family:sans-serif;fill:#000000;fill-opacity:1;stroke:none;stroke-width:1.18858"
       x="572.39789"
       y="232.8156"
       id="text112613"
       transform="scale(0.97679334,1.023758)"><tspan
         sodipodi:role="line"
         id="tspan112611"
         x="572.39789"
         y="232.8156"
         style="font-size:31.6954px;stroke-width:1.18858">Q = 7297 keV</tspan></text>
    <text
       xml:space="preserve"
       style="font-style:normal;font-weight:normal;font-size:15.8477px;line-height:1.25;font-family:sans-serif;fill:#de0000;fill-opacity:1;stroke:none;stroke-width:1.18858"
       x="869.95959"
       y="247.95477"
       id="text2011430"
       transform="matrix(0.97677251,0.00669098,-0.00638403,1.0237361,0,0)"><tspan
         sodipodi:role="line"
         id="tspan2011428"
         x="869.95959"
         y="247.95477"
         style="font-size:15.8477px;fill:#de0000;fill-opacity:1;stroke-width:1.18858">23%</tspan></text>
    <text
       xml:space="preserve"
       style="font-style:normal;font-weight:normal;font-size:15.8477px;line-height:1.25;font-family:sans-serif;fill:#de0000;fill-opacity:1;stroke:none;stroke-width:1.18858"
       x="909.93207"
       y="337.80307"
       id="text2020625"
       transform="matrix(0.97675418,-0.00916498,0.00874454,1.023717,0,0)"><tspan
         sodipodi:role="line"
         id="tspan2020623"
         x="909.93207"
         y="337.80307"
         style="font-size:15.8477px;fill:#de0000;fill-opacity:1;stroke-width:1.18858">58%</tspan></text>
    <text
       xml:space="preserve"
       style="font-style:normal;font-weight:normal;font-size:15.8477px;line-height:1.25;font-family:sans-serif;fill:#de0000;fill-opacity:1;stroke:none;stroke-width:1.18858"
       x="959.05872"
       y="407.04572"
       id="text2031220"
       transform="matrix(0.97677306,-0.00660066,0.00629785,1.0237367,0,0)"><tspan
         sodipodi:role="line"
         id="tspan2031218"
         x="959.05872"
         y="407.04572"
         style="font-size:15.8477px;fill:#de0000;fill-opacity:1;stroke-width:1.18858">17%</tspan></text>
    <text
       xml:space="preserve"
       style="font-style:normal;font-weight:normal;font-size:15.8477px;line-height:1.25;font-family:sans-serif;fill:#de0000;fill-opacity:1;stroke:none;stroke-width:1.18858"
       x="988.73395"
       y="505.37128"
       id="text2040051"
       transform="matrix(0.97667737,-0.01577391,0.01505029,1.0236365,0,0)"><tspan
         sodipodi:role="line"
         id="tspan2040049"
         x="988.73395"
         y="505.37128"
         style="font-size:15.8477px;fill:#de0000;fill-opacity:1;stroke-width:1.18858">2%</tspan></text>
    <path
       style="fill:none;stroke:#000000;stroke-width:1.86206;stroke-linecap:butt;stroke-linejoin:miter;stroke-miterlimit:4;stroke-dasharray:none;stroke-opacity:1;marker-mid:url(#Arrow1Lend-6);marker-end:url(#marker3058-9)"
       d="m 998.54213,552.91107 2.60697,-401.48835"
       id="path2641" />
    <text
       xml:space="preserve"
       style="font-style:normal;font-weight:normal;font-size:40px;line-height:1.25;font-family:sans-serif;fill:#000000;fill-opacity:1;stroke:none"
       x="1010"
       y="156"
       id="text2109428"><tspan
         sodipodi:role="line"
         id="tspan2109426"
         x="1010"
         y="156"><tspan
   style="font-size:65%;baseline-shift:super"
   id="tspan2110804">15</tspan>O</tspan></text>
  </g>
</svg>
